^C:\USERS\NATAN\DESKTOP\SKUUL\1. YEAR\REA1121 MATTE FOR PROGRAMMERING\HAND IN 2\MATH2\SOURCE.CPP
C:\USERS\NATAN\DESKTOP\SKUUL\1. YEAR\REA1121 MATTE FOR PROGRAMMERING\HAND IN 2\MATH2\RELEASE\VC140.PDB
C:\USERS\NATAN\DESKTOP\SKUUL\1. YEAR\REA1121 MATTE FOR PROGRAMMERING\HAND IN 2\MATH2\RELEASE\SOURCE.OBJ
