^C:\USERS\NATAN\DESKTOP\SKUUL\1. YEAR\REA1121 MATTE FOR PROGRAMMERING\MATH2\MATH2\SOURCE.CPP
/c /I"C:\USERS\NATAN\ONEDRIVE\DOCUMENTS\SFML-2.4.2-WINDOWS-VC14-32-BIT\SFML-2.4.2\INCLUDE" /ZI /nologo /W3 /WX- /sdl /Od /Oy- /D WIN32 /D _DEBUG /D _CONSOLE /D _UNICODE /D UNICODE /Gm /EHsc /RTC1 /MDd /GS /fp:precise /Zc:wchar_t /Zc:forScope /Zc:inline /Fo"DEBUG\\" /Fd"DEBUG\VC140.PDB" /Gd /TP /analyze- C:\USERS\NATAN\DESKTOP\SKUUL\1. YEAR\REA1121 MATTE FOR PROGRAMMERING\MATH2\MATH2\SOURCE.CPP
^C:\USERS\NATAN\DESKTOP\SKUUL\1. YEAR\REA1121 MATTE FOR PROGRAMMERING\HAND IN 2\MATH2\SOURCE.CPP
/c /I"C:\USERS\NATAN\ONEDRIVE\DOCUMENTS\SFML-2.4.2-WINDOWS-VC14-32-BIT\SFML-2.4.2\INCLUDE" /ZI /nologo /W3 /WX- /sdl /Od /Oy- /D WIN32 /D _DEBUG /D _CONSOLE /D _UNICODE /D UNICODE /Gm /EHsc /RTC1 /MDd /GS /fp:precise /Zc:wchar_t /Zc:forScope /Zc:inline /Fo"DEBUG\\" /Fd"DEBUG\VC140.PDB" /Gd /TP /analyze- C:\USERS\NATAN\DESKTOP\SKUUL\1. YEAR\REA1121 MATTE FOR PROGRAMMERING\HAND IN 2\MATH2\SOURCE.CPP
^C:\USERS\NATAN\DESKTOP\SKUUL\1. YEAR\REA1121 MATTE FOR PROGRAMMERING\HAND IN 2\HAND IN 2 - CODE\MATH2\SOURCE.CPP
/c /I"C:\USERS\NATAN\ONEDRIVE\DOCUMENTS\SFML-2.4.2-WINDOWS-VC14-32-BIT\SFML-2.4.2\INCLUDE" /ZI /nologo /W3 /WX- /sdl /Od /Oy- /D WIN32 /D _DEBUG /D _CONSOLE /D _UNICODE /D UNICODE /Gm /EHsc /RTC1 /MDd /GS /fp:precise /Zc:wchar_t /Zc:forScope /Zc:inline /Fo"DEBUG\\" /Fd"DEBUG\VC140.PDB" /Gd /TP /analyze- C:\USERS\NATAN\DESKTOP\SKUUL\1. YEAR\REA1121 MATTE FOR PROGRAMMERING\HAND IN 2\HAND IN 2 - CODE\MATH2\SOURCE.CPP
