^C:\USERS\NATAN\DESKTOP\SKUUL\1. YEAR\REA1121 MATTE FOR PROGRAMMERING\MATH2\MATH2\SOURCE.CPP
C:\WINDOWS\GLOBALIZATION\SORTING\SORTDEFAULT.NLS
C:\PROGRAM FILES (X86)\MICROSOFT VISUAL STUDIO 14.0\VC\BIN\1033\CLUI.DLL
C:\PROGRAM FILES (X86)\MICROSOFT VISUAL STUDIO 14.0\VC\BIN\MSPDBSRV.EXE
C:\WINDOWS\SYSTEM32\TZRES.DLL
C:\USERS\NATAN\ONEDRIVE\DOCUMENTS\SFML-2.4.2-WINDOWS-VC14-32-BIT\SFML-2.4.2\INCLUDE\SFML\GRAPHICS.HPP
C:\USERS\NATAN\ONEDRIVE\DOCUMENTS\SFML-2.4.2-WINDOWS-VC14-32-BIT\SFML-2.4.2\INCLUDE\SFML\WINDOW.HPP
C:\USERS\NATAN\ONEDRIVE\DOCUMENTS\SFML-2.4.2-WINDOWS-VC14-32-BIT\SFML-2.4.2\INCLUDE\SFML\SYSTEM.HPP
C:\USERS\NATAN\ONEDRIVE\DOCUMENTS\SFML-2.4.2-WINDOWS-VC14-32-BIT\SFML-2.4.2\INCLUDE\SFML\CONFIG.HPP
C:\USERS\NATAN\ONEDRIVE\DOCUMENTS\SFML-2.4.2-WINDOWS-VC14-32-BIT\SFML-2.4.2\INCLUDE\SFML\SYSTEM\CLOCK.HPP
C:\USERS\NATAN\ONEDRIVE\DOCUMENTS\SFML-2.4.2-WINDOWS-VC14-32-BIT\SFML-2.4.2\INCLUDE\SFML\SYSTEM\EXPORT.HPP
C:\USERS\NATAN\ONEDRIVE\DOCUMENTS\SFML-2.4.2-WINDOWS-VC14-32-BIT\SFML-2.4.2\INCLUDE\SFML\SYSTEM\TIME.HPP
C:\USERS\NATAN\ONEDRIVE\DOCUMENTS\SFML-2.4.2-WINDOWS-VC14-32-BIT\SFML-2.4.2\INCLUDE\SFML\SYSTEM\ERR.HPP
C:\PROGRAM FILES (X86)\MICROSOFT VISUAL STUDIO 14.0\VC\INCLUDE\OSTREAM
C:\PROGRAM FILES (X86)\MICROSOFT VISUAL STUDIO 14.0\VC\INCLUDE\IOS
C:\PROGRAM FILES (X86)\MICROSOFT VISUAL STUDIO 14.0\VC\INCLUDE\XLOCNUM
C:\PROGRAM FILES (X86)\MICROSOFT VISUAL STUDIO 14.0\VC\INCLUDE\CLIMITS
C:\PROGRAM FILES (X86)\MICROSOFT VISUAL STUDIO 14.0\VC\INCLUDE\YVALS.H
C:\PROGRAM FILES (X86)\MICROSOFT VISUAL STUDIO 14.0\VC\INCLUDE\XKEYCHECK.H
C:\PROGRAM FILES (X86)\MICROSOFT VISUAL STUDIO 14.0\VC\INCLUDE\CRTDEFS.H
C:\PROGRAM FILES (X86)\MICROSOFT VISUAL STUDIO 14.0\VC\INCLUDE\VCRUNTIME.H
C:\PROGRAM FILES (X86)\MICROSOFT VISUAL STUDIO 14.0\VC\INCLUDE\SAL.H
C:\PROGRAM FILES (X86)\MICROSOFT VISUAL STUDIO 14.0\VC\INCLUDE\CONCURRENCYSAL.H
C:\PROGRAM FILES (X86)\MICROSOFT VISUAL STUDIO 14.0\VC\INCLUDE\VADEFS.H
C:\PROGRAM FILES (X86)\WINDOWS KITS\10\INCLUDE\10.0.10240.0\UCRT\CORECRT.H
C:\PROGRAM FILES (X86)\MICROSOFT VISUAL STUDIO 14.0\VC\INCLUDE\USE_ANSI.H
C:\PROGRAM FILES (X86)\MICROSOFT VISUAL STUDIO 14.0\VC\INCLUDE\LIMITS.H
C:\PROGRAM FILES (X86)\MICROSOFT VISUAL STUDIO 14.0\VC\INCLUDE\CMATH
C:\PROGRAM FILES (X86)\WINDOWS KITS\10\INCLUDE\10.0.10240.0\UCRT\MATH.H
C:\PROGRAM FILES (X86)\MICROSOFT VISUAL STUDIO 14.0\VC\INCLUDE\XTGMATH.H
C:\PROGRAM FILES (X86)\MICROSOFT VISUAL STUDIO 14.0\VC\INCLUDE\XTR1COMMON
C:\PROGRAM FILES (X86)\MICROSOFT VISUAL STUDIO 14.0\VC\INCLUDE\CSTDLIB
C:\PROGRAM FILES (X86)\WINDOWS KITS\10\INCLUDE\10.0.10240.0\UCRT\STDLIB.H
C:\PROGRAM FILES (X86)\WINDOWS KITS\10\INCLUDE\10.0.10240.0\UCRT\CORECRT_MALLOC.H
C:\PROGRAM FILES (X86)\WINDOWS KITS\10\INCLUDE\10.0.10240.0\UCRT\CORECRT_SEARCH.H
C:\PROGRAM FILES (X86)\WINDOWS KITS\10\INCLUDE\10.0.10240.0\UCRT\STDDEF.H
C:\PROGRAM FILES (X86)\WINDOWS KITS\10\INCLUDE\10.0.10240.0\UCRT\CORECRT_WSTDLIB.H
C:\PROGRAM FILES (X86)\MICROSOFT VISUAL STUDIO 14.0\VC\INCLUDE\CSTDIO
C:\PROGRAM FILES (X86)\WINDOWS KITS\10\INCLUDE\10.0.10240.0\UCRT\STDIO.H
C:\PROGRAM FILES (X86)\WINDOWS KITS\10\INCLUDE\10.0.10240.0\UCRT\CORECRT_WSTDIO.H
C:\PROGRAM FILES (X86)\WINDOWS KITS\10\INCLUDE\10.0.10240.0\UCRT\CORECRT_STDIO_CONFIG.H
C:\PROGRAM FILES (X86)\MICROSOFT VISUAL STUDIO 14.0\VC\INCLUDE\STREAMBUF
C:\PROGRAM FILES (X86)\MICROSOFT VISUAL STUDIO 14.0\VC\INCLUDE\XIOSBASE
C:\PROGRAM FILES (X86)\MICROSOFT VISUAL STUDIO 14.0\VC\INCLUDE\XLOCALE
C:\PROGRAM FILES (X86)\MICROSOFT VISUAL STUDIO 14.0\VC\INCLUDE\CSTRING
C:\PROGRAM FILES (X86)\WINDOWS KITS\10\INCLUDE\10.0.10240.0\UCRT\STRING.H
C:\PROGRAM FILES (X86)\WINDOWS KITS\10\INCLUDE\10.0.10240.0\UCRT\CORECRT_MEMORY.H
C:\PROGRAM FILES (X86)\WINDOWS KITS\10\INCLUDE\10.0.10240.0\UCRT\CORECRT_MEMCPY_S.H
C:\PROGRAM FILES (X86)\WINDOWS KITS\10\INCLUDE\10.0.10240.0\UCRT\ERRNO.H
C:\PROGRAM FILES (X86)\MICROSOFT VISUAL STUDIO 14.0\VC\INCLUDE\VCRUNTIME_STRING.H
C:\PROGRAM FILES (X86)\WINDOWS KITS\10\INCLUDE\10.0.10240.0\UCRT\CORECRT_WSTRING.H
C:\PROGRAM FILES (X86)\MICROSOFT VISUAL STUDIO 14.0\VC\INCLUDE\STDEXCEPT
C:\PROGRAM FILES (X86)\MICROSOFT VISUAL STUDIO 14.0\VC\INCLUDE\EXCEPTION
C:\PROGRAM FILES (X86)\MICROSOFT VISUAL STUDIO 14.0\VC\INCLUDE\TYPE_TRAITS
C:\PROGRAM FILES (X86)\MICROSOFT VISUAL STUDIO 14.0\VC\INCLUDE\XSTDDEF
C:\PROGRAM FILES (X86)\MICROSOFT VISUAL STUDIO 14.0\VC\INCLUDE\CSTDDEF
C:\PROGRAM FILES (X86)\MICROSOFT VISUAL STUDIO 14.0\VC\INCLUDE\INITIALIZER_LIST
C:\PROGRAM FILES (X86)\WINDOWS KITS\10\INCLUDE\10.0.10240.0\UCRT\MALLOC.H
C:\PROGRAM FILES (X86)\MICROSOFT VISUAL STUDIO 14.0\VC\INCLUDE\VCRUNTIME_EXCEPTION.H
C:\PROGRAM FILES (X86)\MICROSOFT VISUAL STUDIO 14.0\VC\INCLUDE\EH.H
C:\PROGRAM FILES (X86)\WINDOWS KITS\10\INCLUDE\10.0.10240.0\UCRT\CORECRT_TERMINATE.H
C:\PROGRAM FILES (X86)\MICROSOFT VISUAL STUDIO 14.0\VC\INCLUDE\XSTRING
C:\PROGRAM FILES (X86)\MICROSOFT VISUAL STUDIO 14.0\VC\INCLUDE\XMEMORY0
C:\PROGRAM FILES (X86)\MICROSOFT VISUAL STUDIO 14.0\VC\INCLUDE\CSTDINT
C:\PROGRAM FILES (X86)\MICROSOFT VISUAL STUDIO 14.0\VC\INCLUDE\STDINT.H
C:\PROGRAM FILES (X86)\MICROSOFT VISUAL STUDIO 14.0\VC\INCLUDE\LIMITS
C:\PROGRAM FILES (X86)\MICROSOFT VISUAL STUDIO 14.0\VC\INCLUDE\YMATH.H
C:\PROGRAM FILES (X86)\MICROSOFT VISUAL STUDIO 14.0\VC\INCLUDE\CFLOAT
C:\PROGRAM FILES (X86)\WINDOWS KITS\10\INCLUDE\10.0.10240.0\UCRT\FLOAT.H
C:\PROGRAM FILES (X86)\MICROSOFT VISUAL STUDIO 14.0\VC\INCLUDE\CWCHAR
C:\PROGRAM FILES (X86)\WINDOWS KITS\10\INCLUDE\10.0.10240.0\UCRT\WCHAR.H
C:\PROGRAM FILES (X86)\WINDOWS KITS\10\INCLUDE\10.0.10240.0\UCRT\CORECRT_WCONIO.H
C:\PROGRAM FILES (X86)\WINDOWS KITS\10\INCLUDE\10.0.10240.0\UCRT\CORECRT_WCTYPE.H
C:\PROGRAM FILES (X86)\WINDOWS KITS\10\INCLUDE\10.0.10240.0\UCRT\CORECRT_WDIRECT.H
C:\PROGRAM FILES (X86)\WINDOWS KITS\10\INCLUDE\10.0.10240.0\UCRT\CORECRT_WIO.H
C:\PROGRAM FILES (X86)\WINDOWS KITS\10\INCLUDE\10.0.10240.0\UCRT\CORECRT_SHARE.H
C:\PROGRAM FILES (X86)\WINDOWS KITS\10\INCLUDE\10.0.10240.0\UCRT\CORECRT_WPROCESS.H
C:\PROGRAM FILES (X86)\WINDOWS KITS\10\INCLUDE\10.0.10240.0\UCRT\CORECRT_WTIME.H
C:\PROGRAM FILES (X86)\WINDOWS KITS\10\INCLUDE\10.0.10240.0\UCRT\SYS\STAT.H
C:\PROGRAM FILES (X86)\WINDOWS KITS\10\INCLUDE\10.0.10240.0\UCRT\SYS\TYPES.H
C:\PROGRAM FILES (X86)\MICROSOFT VISUAL STUDIO 14.0\VC\INCLUDE\NEW
C:\PROGRAM FILES (X86)\MICROSOFT VISUAL STUDIO 14.0\VC\INCLUDE\VCRUNTIME_NEW.H
C:\PROGRAM FILES (X86)\MICROSOFT VISUAL STUDIO 14.0\VC\INCLUDE\XUTILITY
C:\PROGRAM FILES (X86)\MICROSOFT VISUAL STUDIO 14.0\VC\INCLUDE\UTILITY
C:\PROGRAM FILES (X86)\MICROSOFT VISUAL STUDIO 14.0\VC\INCLUDE\IOSFWD
C:\PROGRAM FILES (X86)\WINDOWS KITS\10\INCLUDE\10.0.10240.0\UCRT\CRTDBG.H
C:\PROGRAM FILES (X86)\MICROSOFT VISUAL STUDIO 14.0\VC\INCLUDE\VCRUNTIME_NEW_DEBUG.H
C:\PROGRAM FILES (X86)\MICROSOFT VISUAL STUDIO 14.0\VC\INCLUDE\XATOMIC0.H
C:\PROGRAM FILES (X86)\MICROSOFT VISUAL STUDIO 14.0\VC\INCLUDE\INTRIN.H
C:\PROGRAM FILES (X86)\MICROSOFT VISUAL STUDIO 14.0\VC\INCLUDE\SETJMP.H
C:\PROGRAM FILES (X86)\MICROSOFT VISUAL STUDIO 14.0\VC\INCLUDE\IMMINTRIN.H
C:\PROGRAM FILES (X86)\MICROSOFT VISUAL STUDIO 14.0\VC\INCLUDE\WMMINTRIN.H
C:\PROGRAM FILES (X86)\MICROSOFT VISUAL STUDIO 14.0\VC\INCLUDE\NMMINTRIN.H
C:\PROGRAM FILES (X86)\MICROSOFT VISUAL STUDIO 14.0\VC\INCLUDE\SMMINTRIN.H
C:\PROGRAM FILES (X86)\MICROSOFT VISUAL STUDIO 14.0\VC\INCLUDE\TMMINTRIN.H
C:\PROGRAM FILES (X86)\MICROSOFT VISUAL STUDIO 14.0\VC\INCLUDE\PMMINTRIN.H
C:\PROGRAM FILES (X86)\MICROSOFT VISUAL STUDIO 14.0\VC\INCLUDE\EMMINTRIN.H
C:\PROGRAM FILES (X86)\MICROSOFT VISUAL STUDIO 14.0\VC\INCLUDE\XMMINTRIN.H
C:\PROGRAM FILES (X86)\MICROSOFT VISUAL STUDIO 14.0\VC\INCLUDE\MMINTRIN.H
C:\PROGRAM FILES (X86)\MICROSOFT VISUAL STUDIO 14.0\VC\INCLUDE\AMMINTRIN.H
C:\PROGRAM FILES (X86)\MICROSOFT VISUAL STUDIO 14.0\VC\INCLUDE\MM3DNOW.H
C:\PROGRAM FILES (X86)\MICROSOFT VISUAL STUDIO 14.0\VC\INCLUDE\TYPEINFO
C:\PROGRAM FILES (X86)\MICROSOFT VISUAL STUDIO 14.0\VC\INCLUDE\VCRUNTIME_TYPEINFO.H
C:\PROGRAM FILES (X86)\MICROSOFT VISUAL STUDIO 14.0\VC\INCLUDE\XLOCINFO
C:\PROGRAM FILES (X86)\MICROSOFT VISUAL STUDIO 14.0\VC\INCLUDE\XLOCINFO.H
C:\PROGRAM FILES (X86)\WINDOWS KITS\10\INCLUDE\10.0.10240.0\UCRT\CTYPE.H
C:\PROGRAM FILES (X86)\WINDOWS KITS\10\INCLUDE\10.0.10240.0\UCRT\LOCALE.H
C:\PROGRAM FILES (X86)\MICROSOFT VISUAL STUDIO 14.0\VC\INCLUDE\XFACET
C:\PROGRAM FILES (X86)\MICROSOFT VISUAL STUDIO 14.0\VC\INCLUDE\SYSTEM_ERROR
C:\PROGRAM FILES (X86)\MICROSOFT VISUAL STUDIO 14.0\VC\INCLUDE\CERRNO
C:\PROGRAM FILES (X86)\WINDOWS KITS\10\INCLUDE\10.0.10240.0\UCRT\SHARE.H
C:\USERS\NATAN\ONEDRIVE\DOCUMENTS\SFML-2.4.2-WINDOWS-VC14-32-BIT\SFML-2.4.2\INCLUDE\SFML\SYSTEM\FILEINPUTSTREAM.HPP
C:\USERS\NATAN\ONEDRIVE\DOCUMENTS\SFML-2.4.2-WINDOWS-VC14-32-BIT\SFML-2.4.2\INCLUDE\SFML\SYSTEM\INPUTSTREAM.HPP
C:\USERS\NATAN\ONEDRIVE\DOCUMENTS\SFML-2.4.2-WINDOWS-VC14-32-BIT\SFML-2.4.2\INCLUDE\SFML\SYSTEM\NONCOPYABLE.HPP
C:\PROGRAM FILES (X86)\MICROSOFT VISUAL STUDIO 14.0\VC\INCLUDE\STRING
C:\PROGRAM FILES (X86)\MICROSOFT VISUAL STUDIO 14.0\VC\INCLUDE\ISTREAM
C:\USERS\NATAN\ONEDRIVE\DOCUMENTS\SFML-2.4.2-WINDOWS-VC14-32-BIT\SFML-2.4.2\INCLUDE\SFML\SYSTEM\LOCK.HPP
C:\USERS\NATAN\ONEDRIVE\DOCUMENTS\SFML-2.4.2-WINDOWS-VC14-32-BIT\SFML-2.4.2\INCLUDE\SFML\SYSTEM\MEMORYINPUTSTREAM.HPP
C:\USERS\NATAN\ONEDRIVE\DOCUMENTS\SFML-2.4.2-WINDOWS-VC14-32-BIT\SFML-2.4.2\INCLUDE\SFML\SYSTEM\MUTEX.HPP
C:\USERS\NATAN\ONEDRIVE\DOCUMENTS\SFML-2.4.2-WINDOWS-VC14-32-BIT\SFML-2.4.2\INCLUDE\SFML\SYSTEM\SLEEP.HPP
C:\USERS\NATAN\ONEDRIVE\DOCUMENTS\SFML-2.4.2-WINDOWS-VC14-32-BIT\SFML-2.4.2\INCLUDE\SFML\SYSTEM\STRING.HPP
C:\USERS\NATAN\ONEDRIVE\DOCUMENTS\SFML-2.4.2-WINDOWS-VC14-32-BIT\SFML-2.4.2\INCLUDE\SFML\SYSTEM\UTF.HPP
C:\PROGRAM FILES (X86)\MICROSOFT VISUAL STUDIO 14.0\VC\INCLUDE\ALGORITHM
C:\PROGRAM FILES (X86)\MICROSOFT VISUAL STUDIO 14.0\VC\INCLUDE\XMEMORY
C:\PROGRAM FILES (X86)\MICROSOFT VISUAL STUDIO 14.0\VC\INCLUDE\LOCALE
C:\PROGRAM FILES (X86)\MICROSOFT VISUAL STUDIO 14.0\VC\INCLUDE\XLOCBUF
C:\PROGRAM FILES (X86)\MICROSOFT VISUAL STUDIO 14.0\VC\INCLUDE\XLOCMES
C:\PROGRAM FILES (X86)\MICROSOFT VISUAL STUDIO 14.0\VC\INCLUDE\XLOCMON
C:\PROGRAM FILES (X86)\MICROSOFT VISUAL STUDIO 14.0\VC\INCLUDE\XLOCTIME
C:\PROGRAM FILES (X86)\MICROSOFT VISUAL STUDIO 14.0\VC\INCLUDE\CTIME
C:\PROGRAM FILES (X86)\WINDOWS KITS\10\INCLUDE\10.0.10240.0\UCRT\TIME.H
C:\USERS\NATAN\ONEDRIVE\DOCUMENTS\SFML-2.4.2-WINDOWS-VC14-32-BIT\SFML-2.4.2\INCLUDE\SFML\SYSTEM\UTF.INL
C:\PROGRAM FILES (X86)\MICROSOFT VISUAL STUDIO 14.0\VC\INCLUDE\ITERATOR
C:\USERS\NATAN\ONEDRIVE\DOCUMENTS\SFML-2.4.2-WINDOWS-VC14-32-BIT\SFML-2.4.2\INCLUDE\SFML\SYSTEM\STRING.INL
C:\USERS\NATAN\ONEDRIVE\DOCUMENTS\SFML-2.4.2-WINDOWS-VC14-32-BIT\SFML-2.4.2\INCLUDE\SFML\SYSTEM\THREAD.HPP
C:\USERS\NATAN\ONEDRIVE\DOCUMENTS\SFML-2.4.2-WINDOWS-VC14-32-BIT\SFML-2.4.2\INCLUDE\SFML\SYSTEM\THREAD.INL
C:\USERS\NATAN\ONEDRIVE\DOCUMENTS\SFML-2.4.2-WINDOWS-VC14-32-BIT\SFML-2.4.2\INCLUDE\SFML\SYSTEM\THREADLOCAL.HPP
C:\USERS\NATAN\ONEDRIVE\DOCUMENTS\SFML-2.4.2-WINDOWS-VC14-32-BIT\SFML-2.4.2\INCLUDE\SFML\SYSTEM\THREADLOCALPTR.HPP
C:\USERS\NATAN\ONEDRIVE\DOCUMENTS\SFML-2.4.2-WINDOWS-VC14-32-BIT\SFML-2.4.2\INCLUDE\SFML\SYSTEM\THREADLOCALPTR.INL
C:\USERS\NATAN\ONEDRIVE\DOCUMENTS\SFML-2.4.2-WINDOWS-VC14-32-BIT\SFML-2.4.2\INCLUDE\SFML\SYSTEM\VECTOR2.HPP
C:\USERS\NATAN\ONEDRIVE\DOCUMENTS\SFML-2.4.2-WINDOWS-VC14-32-BIT\SFML-2.4.2\INCLUDE\SFML\SYSTEM\VECTOR2.INL
C:\USERS\NATAN\ONEDRIVE\DOCUMENTS\SFML-2.4.2-WINDOWS-VC14-32-BIT\SFML-2.4.2\INCLUDE\SFML\SYSTEM\VECTOR3.HPP
C:\USERS\NATAN\ONEDRIVE\DOCUMENTS\SFML-2.4.2-WINDOWS-VC14-32-BIT\SFML-2.4.2\INCLUDE\SFML\SYSTEM\VECTOR3.INL
C:\USERS\NATAN\ONEDRIVE\DOCUMENTS\SFML-2.4.2-WINDOWS-VC14-32-BIT\SFML-2.4.2\INCLUDE\SFML\WINDOW\CONTEXT.HPP
C:\USERS\NATAN\ONEDRIVE\DOCUMENTS\SFML-2.4.2-WINDOWS-VC14-32-BIT\SFML-2.4.2\INCLUDE\SFML\WINDOW\EXPORT.HPP
C:\USERS\NATAN\ONEDRIVE\DOCUMENTS\SFML-2.4.2-WINDOWS-VC14-32-BIT\SFML-2.4.2\INCLUDE\SFML\WINDOW\GLRESOURCE.HPP
C:\USERS\NATAN\ONEDRIVE\DOCUMENTS\SFML-2.4.2-WINDOWS-VC14-32-BIT\SFML-2.4.2\INCLUDE\SFML\WINDOW\CONTEXTSETTINGS.HPP
C:\USERS\NATAN\ONEDRIVE\DOCUMENTS\SFML-2.4.2-WINDOWS-VC14-32-BIT\SFML-2.4.2\INCLUDE\SFML\WINDOW\EVENT.HPP
C:\USERS\NATAN\ONEDRIVE\DOCUMENTS\SFML-2.4.2-WINDOWS-VC14-32-BIT\SFML-2.4.2\INCLUDE\SFML\WINDOW\JOYSTICK.HPP
C:\USERS\NATAN\ONEDRIVE\DOCUMENTS\SFML-2.4.2-WINDOWS-VC14-32-BIT\SFML-2.4.2\INCLUDE\SFML\WINDOW\KEYBOARD.HPP
C:\USERS\NATAN\ONEDRIVE\DOCUMENTS\SFML-2.4.2-WINDOWS-VC14-32-BIT\SFML-2.4.2\INCLUDE\SFML\WINDOW\MOUSE.HPP
C:\USERS\NATAN\ONEDRIVE\DOCUMENTS\SFML-2.4.2-WINDOWS-VC14-32-BIT\SFML-2.4.2\INCLUDE\SFML\WINDOW\SENSOR.HPP
C:\USERS\NATAN\ONEDRIVE\DOCUMENTS\SFML-2.4.2-WINDOWS-VC14-32-BIT\SFML-2.4.2\INCLUDE\SFML\WINDOW\TOUCH.HPP
C:\USERS\NATAN\ONEDRIVE\DOCUMENTS\SFML-2.4.2-WINDOWS-VC14-32-BIT\SFML-2.4.2\INCLUDE\SFML\WINDOW\VIDEOMODE.HPP
C:\PROGRAM FILES (X86)\MICROSOFT VISUAL STUDIO 14.0\VC\INCLUDE\VECTOR
C:\USERS\NATAN\ONEDRIVE\DOCUMENTS\SFML-2.4.2-WINDOWS-VC14-32-BIT\SFML-2.4.2\INCLUDE\SFML\WINDOW\WINDOW.HPP
C:\USERS\NATAN\ONEDRIVE\DOCUMENTS\SFML-2.4.2-WINDOWS-VC14-32-BIT\SFML-2.4.2\INCLUDE\SFML\WINDOW\WINDOWHANDLE.HPP
C:\USERS\NATAN\ONEDRIVE\DOCUMENTS\SFML-2.4.2-WINDOWS-VC14-32-BIT\SFML-2.4.2\INCLUDE\SFML\WINDOW\WINDOWSTYLE.HPP
C:\USERS\NATAN\ONEDRIVE\DOCUMENTS\SFML-2.4.2-WINDOWS-VC14-32-BIT\SFML-2.4.2\INCLUDE\SFML\GRAPHICS\BLENDMODE.HPP
C:\USERS\NATAN\ONEDRIVE\DOCUMENTS\SFML-2.4.2-WINDOWS-VC14-32-BIT\SFML-2.4.2\INCLUDE\SFML\GRAPHICS\EXPORT.HPP
C:\USERS\NATAN\ONEDRIVE\DOCUMENTS\SFML-2.4.2-WINDOWS-VC14-32-BIT\SFML-2.4.2\INCLUDE\SFML\GRAPHICS\CIRCLESHAPE.HPP
C:\USERS\NATAN\ONEDRIVE\DOCUMENTS\SFML-2.4.2-WINDOWS-VC14-32-BIT\SFML-2.4.2\INCLUDE\SFML\GRAPHICS\SHAPE.HPP
C:\USERS\NATAN\ONEDRIVE\DOCUMENTS\SFML-2.4.2-WINDOWS-VC14-32-BIT\SFML-2.4.2\INCLUDE\SFML\GRAPHICS\DRAWABLE.HPP
C:\USERS\NATAN\ONEDRIVE\DOCUMENTS\SFML-2.4.2-WINDOWS-VC14-32-BIT\SFML-2.4.2\INCLUDE\SFML\GRAPHICS\RENDERSTATES.HPP
C:\USERS\NATAN\ONEDRIVE\DOCUMENTS\SFML-2.4.2-WINDOWS-VC14-32-BIT\SFML-2.4.2\INCLUDE\SFML\GRAPHICS\TRANSFORM.HPP
C:\USERS\NATAN\ONEDRIVE\DOCUMENTS\SFML-2.4.2-WINDOWS-VC14-32-BIT\SFML-2.4.2\INCLUDE\SFML\GRAPHICS\RECT.HPP
C:\USERS\NATAN\ONEDRIVE\DOCUMENTS\SFML-2.4.2-WINDOWS-VC14-32-BIT\SFML-2.4.2\INCLUDE\SFML\GRAPHICS\RECT.INL
C:\USERS\NATAN\ONEDRIVE\DOCUMENTS\SFML-2.4.2-WINDOWS-VC14-32-BIT\SFML-2.4.2\INCLUDE\SFML\GRAPHICS\TRANSFORMABLE.HPP
C:\USERS\NATAN\ONEDRIVE\DOCUMENTS\SFML-2.4.2-WINDOWS-VC14-32-BIT\SFML-2.4.2\INCLUDE\SFML\GRAPHICS\VERTEXARRAY.HPP
C:\USERS\NATAN\ONEDRIVE\DOCUMENTS\SFML-2.4.2-WINDOWS-VC14-32-BIT\SFML-2.4.2\INCLUDE\SFML\GRAPHICS\VERTEX.HPP
C:\USERS\NATAN\ONEDRIVE\DOCUMENTS\SFML-2.4.2-WINDOWS-VC14-32-BIT\SFML-2.4.2\INCLUDE\SFML\GRAPHICS\COLOR.HPP
C:\USERS\NATAN\ONEDRIVE\DOCUMENTS\SFML-2.4.2-WINDOWS-VC14-32-BIT\SFML-2.4.2\INCLUDE\SFML\GRAPHICS\PRIMITIVETYPE.HPP
C:\USERS\NATAN\ONEDRIVE\DOCUMENTS\SFML-2.4.2-WINDOWS-VC14-32-BIT\SFML-2.4.2\INCLUDE\SFML\GRAPHICS\CONVEXSHAPE.HPP
C:\USERS\NATAN\ONEDRIVE\DOCUMENTS\SFML-2.4.2-WINDOWS-VC14-32-BIT\SFML-2.4.2\INCLUDE\SFML\GRAPHICS\FONT.HPP
C:\USERS\NATAN\ONEDRIVE\DOCUMENTS\SFML-2.4.2-WINDOWS-VC14-32-BIT\SFML-2.4.2\INCLUDE\SFML\GRAPHICS\GLYPH.HPP
C:\USERS\NATAN\ONEDRIVE\DOCUMENTS\SFML-2.4.2-WINDOWS-VC14-32-BIT\SFML-2.4.2\INCLUDE\SFML\GRAPHICS\TEXTURE.HPP
C:\USERS\NATAN\ONEDRIVE\DOCUMENTS\SFML-2.4.2-WINDOWS-VC14-32-BIT\SFML-2.4.2\INCLUDE\SFML\GRAPHICS\IMAGE.HPP
C:\PROGRAM FILES (X86)\MICROSOFT VISUAL STUDIO 14.0\VC\INCLUDE\MAP
C:\PROGRAM FILES (X86)\MICROSOFT VISUAL STUDIO 14.0\VC\INCLUDE\TUPLE
C:\PROGRAM FILES (X86)\MICROSOFT VISUAL STUDIO 14.0\VC\INCLUDE\XTREE
C:\USERS\NATAN\ONEDRIVE\DOCUMENTS\SFML-2.4.2-WINDOWS-VC14-32-BIT\SFML-2.4.2\INCLUDE\SFML\GRAPHICS\RECTANGLESHAPE.HPP
C:\USERS\NATAN\ONEDRIVE\DOCUMENTS\SFML-2.4.2-WINDOWS-VC14-32-BIT\SFML-2.4.2\INCLUDE\SFML\GRAPHICS\RENDERTARGET.HPP
C:\USERS\NATAN\ONEDRIVE\DOCUMENTS\SFML-2.4.2-WINDOWS-VC14-32-BIT\SFML-2.4.2\INCLUDE\SFML\GRAPHICS\VIEW.HPP
C:\USERS\NATAN\ONEDRIVE\DOCUMENTS\SFML-2.4.2-WINDOWS-VC14-32-BIT\SFML-2.4.2\INCLUDE\SFML\GRAPHICS\RENDERTEXTURE.HPP
C:\USERS\NATAN\ONEDRIVE\DOCUMENTS\SFML-2.4.2-WINDOWS-VC14-32-BIT\SFML-2.4.2\INCLUDE\SFML\GRAPHICS\RENDERWINDOW.HPP
C:\USERS\NATAN\ONEDRIVE\DOCUMENTS\SFML-2.4.2-WINDOWS-VC14-32-BIT\SFML-2.4.2\INCLUDE\SFML\GRAPHICS\SHADER.HPP
C:\USERS\NATAN\ONEDRIVE\DOCUMENTS\SFML-2.4.2-WINDOWS-VC14-32-BIT\SFML-2.4.2\INCLUDE\SFML\GRAPHICS\GLSL.HPP
C:\USERS\NATAN\ONEDRIVE\DOCUMENTS\SFML-2.4.2-WINDOWS-VC14-32-BIT\SFML-2.4.2\INCLUDE\SFML\GRAPHICS\GLSL.INL
C:\USERS\NATAN\ONEDRIVE\DOCUMENTS\SFML-2.4.2-WINDOWS-VC14-32-BIT\SFML-2.4.2\INCLUDE\SFML\GRAPHICS\SPRITE.HPP
C:\USERS\NATAN\ONEDRIVE\DOCUMENTS\SFML-2.4.2-WINDOWS-VC14-32-BIT\SFML-2.4.2\INCLUDE\SFML\GRAPHICS\TEXT.HPP
C:\PROGRAM FILES (X86)\MICROSOFT VISUAL STUDIO 14.0\VC\INCLUDE\IOSTREAM
C:\PROGRAM FILES (X86)\MICROSOFT VISUAL STUDIO 14.0\VC\INCLUDE\SSTREAM
^C:\USERS\NATAN\DESKTOP\SKUUL\1. YEAR\REA1121 MATTE FOR PROGRAMMERING\HAND IN 2\MATH2\SOURCE.CPP
C:\WINDOWS\GLOBALIZATION\SORTING\SORTDEFAULT.NLS
C:\PROGRAM FILES (X86)\MICROSOFT VISUAL STUDIO 14.0\VC\BIN\1033\CLUI.DLL
C:\PROGRAM FILES (X86)\MICROSOFT VISUAL STUDIO 14.0\VC\BIN\MSPDBSRV.EXE
C:\WINDOWS\SYSTEM32\TZRES.DLL
C:\USERS\NATAN\ONEDRIVE\DOCUMENTS\SFML-2.4.2-WINDOWS-VC14-32-BIT\SFML-2.4.2\INCLUDE\SFML\GRAPHICS.HPP
C:\USERS\NATAN\ONEDRIVE\DOCUMENTS\SFML-2.4.2-WINDOWS-VC14-32-BIT\SFML-2.4.2\INCLUDE\SFML\WINDOW.HPP
C:\USERS\NATAN\ONEDRIVE\DOCUMENTS\SFML-2.4.2-WINDOWS-VC14-32-BIT\SFML-2.4.2\INCLUDE\SFML\SYSTEM.HPP
C:\USERS\NATAN\ONEDRIVE\DOCUMENTS\SFML-2.4.2-WINDOWS-VC14-32-BIT\SFML-2.4.2\INCLUDE\SFML\CONFIG.HPP
C:\USERS\NATAN\ONEDRIVE\DOCUMENTS\SFML-2.4.2-WINDOWS-VC14-32-BIT\SFML-2.4.2\INCLUDE\SFML\SYSTEM\CLOCK.HPP
C:\USERS\NATAN\ONEDRIVE\DOCUMENTS\SFML-2.4.2-WINDOWS-VC14-32-BIT\SFML-2.4.2\INCLUDE\SFML\SYSTEM\EXPORT.HPP
C:\USERS\NATAN\ONEDRIVE\DOCUMENTS\SFML-2.4.2-WINDOWS-VC14-32-BIT\SFML-2.4.2\INCLUDE\SFML\SYSTEM\TIME.HPP
C:\USERS\NATAN\ONEDRIVE\DOCUMENTS\SFML-2.4.2-WINDOWS-VC14-32-BIT\SFML-2.4.2\INCLUDE\SFML\SYSTEM\ERR.HPP
C:\PROGRAM FILES (X86)\MICROSOFT VISUAL STUDIO 14.0\VC\INCLUDE\OSTREAM
C:\PROGRAM FILES (X86)\MICROSOFT VISUAL STUDIO 14.0\VC\INCLUDE\IOS
C:\PROGRAM FILES (X86)\MICROSOFT VISUAL STUDIO 14.0\VC\INCLUDE\XLOCNUM
C:\PROGRAM FILES (X86)\MICROSOFT VISUAL STUDIO 14.0\VC\INCLUDE\CLIMITS
C:\PROGRAM FILES (X86)\MICROSOFT VISUAL STUDIO 14.0\VC\INCLUDE\YVALS.H
C:\PROGRAM FILES (X86)\MICROSOFT VISUAL STUDIO 14.0\VC\INCLUDE\XKEYCHECK.H
C:\PROGRAM FILES (X86)\MICROSOFT VISUAL STUDIO 14.0\VC\INCLUDE\CRTDEFS.H
C:\PROGRAM FILES (X86)\MICROSOFT VISUAL STUDIO 14.0\VC\INCLUDE\VCRUNTIME.H
C:\PROGRAM FILES (X86)\MICROSOFT VISUAL STUDIO 14.0\VC\INCLUDE\SAL.H
C:\PROGRAM FILES (X86)\MICROSOFT VISUAL STUDIO 14.0\VC\INCLUDE\CONCURRENCYSAL.H
C:\PROGRAM FILES (X86)\MICROSOFT VISUAL STUDIO 14.0\VC\INCLUDE\VADEFS.H
C:\PROGRAM FILES (X86)\WINDOWS KITS\10\INCLUDE\10.0.10240.0\UCRT\CORECRT.H
C:\PROGRAM FILES (X86)\MICROSOFT VISUAL STUDIO 14.0\VC\INCLUDE\USE_ANSI.H
C:\PROGRAM FILES (X86)\MICROSOFT VISUAL STUDIO 14.0\VC\INCLUDE\LIMITS.H
C:\PROGRAM FILES (X86)\MICROSOFT VISUAL STUDIO 14.0\VC\INCLUDE\CMATH
C:\PROGRAM FILES (X86)\WINDOWS KITS\10\INCLUDE\10.0.10240.0\UCRT\MATH.H
C:\PROGRAM FILES (X86)\MICROSOFT VISUAL STUDIO 14.0\VC\INCLUDE\XTGMATH.H
C:\PROGRAM FILES (X86)\MICROSOFT VISUAL STUDIO 14.0\VC\INCLUDE\XTR1COMMON
C:\PROGRAM FILES (X86)\MICROSOFT VISUAL STUDIO 14.0\VC\INCLUDE\CSTDLIB
C:\PROGRAM FILES (X86)\WINDOWS KITS\10\INCLUDE\10.0.10240.0\UCRT\STDLIB.H
C:\PROGRAM FILES (X86)\WINDOWS KITS\10\INCLUDE\10.0.10240.0\UCRT\CORECRT_MALLOC.H
C:\PROGRAM FILES (X86)\WINDOWS KITS\10\INCLUDE\10.0.10240.0\UCRT\CORECRT_SEARCH.H
C:\PROGRAM FILES (X86)\WINDOWS KITS\10\INCLUDE\10.0.10240.0\UCRT\STDDEF.H
C:\PROGRAM FILES (X86)\WINDOWS KITS\10\INCLUDE\10.0.10240.0\UCRT\CORECRT_WSTDLIB.H
C:\PROGRAM FILES (X86)\MICROSOFT VISUAL STUDIO 14.0\VC\INCLUDE\CSTDIO
C:\PROGRAM FILES (X86)\WINDOWS KITS\10\INCLUDE\10.0.10240.0\UCRT\STDIO.H
C:\PROGRAM FILES (X86)\WINDOWS KITS\10\INCLUDE\10.0.10240.0\UCRT\CORECRT_WSTDIO.H
C:\PROGRAM FILES (X86)\WINDOWS KITS\10\INCLUDE\10.0.10240.0\UCRT\CORECRT_STDIO_CONFIG.H
C:\PROGRAM FILES (X86)\MICROSOFT VISUAL STUDIO 14.0\VC\INCLUDE\STREAMBUF
C:\PROGRAM FILES (X86)\MICROSOFT VISUAL STUDIO 14.0\VC\INCLUDE\XIOSBASE
C:\PROGRAM FILES (X86)\MICROSOFT VISUAL STUDIO 14.0\VC\INCLUDE\XLOCALE
C:\PROGRAM FILES (X86)\MICROSOFT VISUAL STUDIO 14.0\VC\INCLUDE\CSTRING
C:\PROGRAM FILES (X86)\WINDOWS KITS\10\INCLUDE\10.0.10240.0\UCRT\STRING.H
C:\PROGRAM FILES (X86)\WINDOWS KITS\10\INCLUDE\10.0.10240.0\UCRT\CORECRT_MEMORY.H
C:\PROGRAM FILES (X86)\WINDOWS KITS\10\INCLUDE\10.0.10240.0\UCRT\CORECRT_MEMCPY_S.H
C:\PROGRAM FILES (X86)\WINDOWS KITS\10\INCLUDE\10.0.10240.0\UCRT\ERRNO.H
C:\PROGRAM FILES (X86)\MICROSOFT VISUAL STUDIO 14.0\VC\INCLUDE\VCRUNTIME_STRING.H
C:\PROGRAM FILES (X86)\WINDOWS KITS\10\INCLUDE\10.0.10240.0\UCRT\CORECRT_WSTRING.H
C:\PROGRAM FILES (X86)\MICROSOFT VISUAL STUDIO 14.0\VC\INCLUDE\STDEXCEPT
C:\PROGRAM FILES (X86)\MICROSOFT VISUAL STUDIO 14.0\VC\INCLUDE\EXCEPTION
C:\PROGRAM FILES (X86)\MICROSOFT VISUAL STUDIO 14.0\VC\INCLUDE\TYPE_TRAITS
C:\PROGRAM FILES (X86)\MICROSOFT VISUAL STUDIO 14.0\VC\INCLUDE\XSTDDEF
C:\PROGRAM FILES (X86)\MICROSOFT VISUAL STUDIO 14.0\VC\INCLUDE\CSTDDEF
C:\PROGRAM FILES (X86)\MICROSOFT VISUAL STUDIO 14.0\VC\INCLUDE\INITIALIZER_LIST
C:\PROGRAM FILES (X86)\WINDOWS KITS\10\INCLUDE\10.0.10240.0\UCRT\MALLOC.H
C:\PROGRAM FILES (X86)\MICROSOFT VISUAL STUDIO 14.0\VC\INCLUDE\VCRUNTIME_EXCEPTION.H
C:\PROGRAM FILES (X86)\MICROSOFT VISUAL STUDIO 14.0\VC\INCLUDE\EH.H
C:\PROGRAM FILES (X86)\WINDOWS KITS\10\INCLUDE\10.0.10240.0\UCRT\CORECRT_TERMINATE.H
C:\PROGRAM FILES (X86)\MICROSOFT VISUAL STUDIO 14.0\VC\INCLUDE\XSTRING
C:\PROGRAM FILES (X86)\MICROSOFT VISUAL STUDIO 14.0\VC\INCLUDE\XMEMORY0
C:\PROGRAM FILES (X86)\MICROSOFT VISUAL STUDIO 14.0\VC\INCLUDE\CSTDINT
C:\PROGRAM FILES (X86)\MICROSOFT VISUAL STUDIO 14.0\VC\INCLUDE\STDINT.H
C:\PROGRAM FILES (X86)\MICROSOFT VISUAL STUDIO 14.0\VC\INCLUDE\LIMITS
C:\PROGRAM FILES (X86)\MICROSOFT VISUAL STUDIO 14.0\VC\INCLUDE\YMATH.H
C:\PROGRAM FILES (X86)\MICROSOFT VISUAL STUDIO 14.0\VC\INCLUDE\CFLOAT
C:\PROGRAM FILES (X86)\WINDOWS KITS\10\INCLUDE\10.0.10240.0\UCRT\FLOAT.H
C:\PROGRAM FILES (X86)\MICROSOFT VISUAL STUDIO 14.0\VC\INCLUDE\CWCHAR
C:\PROGRAM FILES (X86)\WINDOWS KITS\10\INCLUDE\10.0.10240.0\UCRT\WCHAR.H
C:\PROGRAM FILES (X86)\WINDOWS KITS\10\INCLUDE\10.0.10240.0\UCRT\CORECRT_WCONIO.H
C:\PROGRAM FILES (X86)\WINDOWS KITS\10\INCLUDE\10.0.10240.0\UCRT\CORECRT_WCTYPE.H
C:\PROGRAM FILES (X86)\WINDOWS KITS\10\INCLUDE\10.0.10240.0\UCRT\CORECRT_WDIRECT.H
C:\PROGRAM FILES (X86)\WINDOWS KITS\10\INCLUDE\10.0.10240.0\UCRT\CORECRT_WIO.H
C:\PROGRAM FILES (X86)\WINDOWS KITS\10\INCLUDE\10.0.10240.0\UCRT\CORECRT_SHARE.H
C:\PROGRAM FILES (X86)\WINDOWS KITS\10\INCLUDE\10.0.10240.0\UCRT\CORECRT_WPROCESS.H
C:\PROGRAM FILES (X86)\WINDOWS KITS\10\INCLUDE\10.0.10240.0\UCRT\CORECRT_WTIME.H
C:\PROGRAM FILES (X86)\WINDOWS KITS\10\INCLUDE\10.0.10240.0\UCRT\SYS\STAT.H
C:\PROGRAM FILES (X86)\WINDOWS KITS\10\INCLUDE\10.0.10240.0\UCRT\SYS\TYPES.H
C:\PROGRAM FILES (X86)\MICROSOFT VISUAL STUDIO 14.0\VC\INCLUDE\NEW
C:\PROGRAM FILES (X86)\MICROSOFT VISUAL STUDIO 14.0\VC\INCLUDE\VCRUNTIME_NEW.H
C:\PROGRAM FILES (X86)\MICROSOFT VISUAL STUDIO 14.0\VC\INCLUDE\XUTILITY
C:\PROGRAM FILES (X86)\MICROSOFT VISUAL STUDIO 14.0\VC\INCLUDE\UTILITY
C:\PROGRAM FILES (X86)\MICROSOFT VISUAL STUDIO 14.0\VC\INCLUDE\IOSFWD
C:\PROGRAM FILES (X86)\WINDOWS KITS\10\INCLUDE\10.0.10240.0\UCRT\CRTDBG.H
C:\PROGRAM FILES (X86)\MICROSOFT VISUAL STUDIO 14.0\VC\INCLUDE\VCRUNTIME_NEW_DEBUG.H
C:\PROGRAM FILES (X86)\MICROSOFT VISUAL STUDIO 14.0\VC\INCLUDE\XATOMIC0.H
C:\PROGRAM FILES (X86)\MICROSOFT VISUAL STUDIO 14.0\VC\INCLUDE\INTRIN.H
C:\PROGRAM FILES (X86)\MICROSOFT VISUAL STUDIO 14.0\VC\INCLUDE\SETJMP.H
C:\PROGRAM FILES (X86)\MICROSOFT VISUAL STUDIO 14.0\VC\INCLUDE\IMMINTRIN.H
C:\PROGRAM FILES (X86)\MICROSOFT VISUAL STUDIO 14.0\VC\INCLUDE\WMMINTRIN.H
C:\PROGRAM FILES (X86)\MICROSOFT VISUAL STUDIO 14.0\VC\INCLUDE\NMMINTRIN.H
C:\PROGRAM FILES (X86)\MICROSOFT VISUAL STUDIO 14.0\VC\INCLUDE\SMMINTRIN.H
C:\PROGRAM FILES (X86)\MICROSOFT VISUAL STUDIO 14.0\VC\INCLUDE\TMMINTRIN.H
C:\PROGRAM FILES (X86)\MICROSOFT VISUAL STUDIO 14.0\VC\INCLUDE\PMMINTRIN.H
C:\PROGRAM FILES (X86)\MICROSOFT VISUAL STUDIO 14.0\VC\INCLUDE\EMMINTRIN.H
C:\PROGRAM FILES (X86)\MICROSOFT VISUAL STUDIO 14.0\VC\INCLUDE\XMMINTRIN.H
C:\PROGRAM FILES (X86)\MICROSOFT VISUAL STUDIO 14.0\VC\INCLUDE\MMINTRIN.H
C:\PROGRAM FILES (X86)\MICROSOFT VISUAL STUDIO 14.0\VC\INCLUDE\AMMINTRIN.H
C:\PROGRAM FILES (X86)\MICROSOFT VISUAL STUDIO 14.0\VC\INCLUDE\MM3DNOW.H
C:\PROGRAM FILES (X86)\MICROSOFT VISUAL STUDIO 14.0\VC\INCLUDE\TYPEINFO
C:\PROGRAM FILES (X86)\MICROSOFT VISUAL STUDIO 14.0\VC\INCLUDE\VCRUNTIME_TYPEINFO.H
C:\PROGRAM FILES (X86)\MICROSOFT VISUAL STUDIO 14.0\VC\INCLUDE\XLOCINFO
C:\PROGRAM FILES (X86)\MICROSOFT VISUAL STUDIO 14.0\VC\INCLUDE\XLOCINFO.H
C:\PROGRAM FILES (X86)\WINDOWS KITS\10\INCLUDE\10.0.10240.0\UCRT\CTYPE.H
C:\PROGRAM FILES (X86)\WINDOWS KITS\10\INCLUDE\10.0.10240.0\UCRT\LOCALE.H
C:\PROGRAM FILES (X86)\MICROSOFT VISUAL STUDIO 14.0\VC\INCLUDE\XFACET
C:\PROGRAM FILES (X86)\MICROSOFT VISUAL STUDIO 14.0\VC\INCLUDE\SYSTEM_ERROR
C:\PROGRAM FILES (X86)\MICROSOFT VISUAL STUDIO 14.0\VC\INCLUDE\CERRNO
C:\PROGRAM FILES (X86)\WINDOWS KITS\10\INCLUDE\10.0.10240.0\UCRT\SHARE.H
C:\USERS\NATAN\ONEDRIVE\DOCUMENTS\SFML-2.4.2-WINDOWS-VC14-32-BIT\SFML-2.4.2\INCLUDE\SFML\SYSTEM\FILEINPUTSTREAM.HPP
C:\USERS\NATAN\ONEDRIVE\DOCUMENTS\SFML-2.4.2-WINDOWS-VC14-32-BIT\SFML-2.4.2\INCLUDE\SFML\SYSTEM\INPUTSTREAM.HPP
C:\USERS\NATAN\ONEDRIVE\DOCUMENTS\SFML-2.4.2-WINDOWS-VC14-32-BIT\SFML-2.4.2\INCLUDE\SFML\SYSTEM\NONCOPYABLE.HPP
C:\PROGRAM FILES (X86)\MICROSOFT VISUAL STUDIO 14.0\VC\INCLUDE\STRING
C:\PROGRAM FILES (X86)\MICROSOFT VISUAL STUDIO 14.0\VC\INCLUDE\ISTREAM
C:\USERS\NATAN\ONEDRIVE\DOCUMENTS\SFML-2.4.2-WINDOWS-VC14-32-BIT\SFML-2.4.2\INCLUDE\SFML\SYSTEM\LOCK.HPP
C:\USERS\NATAN\ONEDRIVE\DOCUMENTS\SFML-2.4.2-WINDOWS-VC14-32-BIT\SFML-2.4.2\INCLUDE\SFML\SYSTEM\MEMORYINPUTSTREAM.HPP
C:\USERS\NATAN\ONEDRIVE\DOCUMENTS\SFML-2.4.2-WINDOWS-VC14-32-BIT\SFML-2.4.2\INCLUDE\SFML\SYSTEM\MUTEX.HPP
C:\USERS\NATAN\ONEDRIVE\DOCUMENTS\SFML-2.4.2-WINDOWS-VC14-32-BIT\SFML-2.4.2\INCLUDE\SFML\SYSTEM\SLEEP.HPP
C:\USERS\NATAN\ONEDRIVE\DOCUMENTS\SFML-2.4.2-WINDOWS-VC14-32-BIT\SFML-2.4.2\INCLUDE\SFML\SYSTEM\STRING.HPP
C:\USERS\NATAN\ONEDRIVE\DOCUMENTS\SFML-2.4.2-WINDOWS-VC14-32-BIT\SFML-2.4.2\INCLUDE\SFML\SYSTEM\UTF.HPP
C:\PROGRAM FILES (X86)\MICROSOFT VISUAL STUDIO 14.0\VC\INCLUDE\ALGORITHM
C:\PROGRAM FILES (X86)\MICROSOFT VISUAL STUDIO 14.0\VC\INCLUDE\XMEMORY
C:\PROGRAM FILES (X86)\MICROSOFT VISUAL STUDIO 14.0\VC\INCLUDE\LOCALE
C:\PROGRAM FILES (X86)\MICROSOFT VISUAL STUDIO 14.0\VC\INCLUDE\XLOCBUF
C:\PROGRAM FILES (X86)\MICROSOFT VISUAL STUDIO 14.0\VC\INCLUDE\XLOCMES
C:\PROGRAM FILES (X86)\MICROSOFT VISUAL STUDIO 14.0\VC\INCLUDE\XLOCMON
C:\PROGRAM FILES (X86)\MICROSOFT VISUAL STUDIO 14.0\VC\INCLUDE\XLOCTIME
C:\PROGRAM FILES (X86)\MICROSOFT VISUAL STUDIO 14.0\VC\INCLUDE\CTIME
C:\PROGRAM FILES (X86)\WINDOWS KITS\10\INCLUDE\10.0.10240.0\UCRT\TIME.H
C:\USERS\NATAN\ONEDRIVE\DOCUMENTS\SFML-2.4.2-WINDOWS-VC14-32-BIT\SFML-2.4.2\INCLUDE\SFML\SYSTEM\UTF.INL
C:\PROGRAM FILES (X86)\MICROSOFT VISUAL STUDIO 14.0\VC\INCLUDE\ITERATOR
C:\USERS\NATAN\ONEDRIVE\DOCUMENTS\SFML-2.4.2-WINDOWS-VC14-32-BIT\SFML-2.4.2\INCLUDE\SFML\SYSTEM\STRING.INL
C:\USERS\NATAN\ONEDRIVE\DOCUMENTS\SFML-2.4.2-WINDOWS-VC14-32-BIT\SFML-2.4.2\INCLUDE\SFML\SYSTEM\THREAD.HPP
C:\USERS\NATAN\ONEDRIVE\DOCUMENTS\SFML-2.4.2-WINDOWS-VC14-32-BIT\SFML-2.4.2\INCLUDE\SFML\SYSTEM\THREAD.INL
C:\USERS\NATAN\ONEDRIVE\DOCUMENTS\SFML-2.4.2-WINDOWS-VC14-32-BIT\SFML-2.4.2\INCLUDE\SFML\SYSTEM\THREADLOCAL.HPP
C:\USERS\NATAN\ONEDRIVE\DOCUMENTS\SFML-2.4.2-WINDOWS-VC14-32-BIT\SFML-2.4.2\INCLUDE\SFML\SYSTEM\THREADLOCALPTR.HPP
C:\USERS\NATAN\ONEDRIVE\DOCUMENTS\SFML-2.4.2-WINDOWS-VC14-32-BIT\SFML-2.4.2\INCLUDE\SFML\SYSTEM\THREADLOCALPTR.INL
C:\USERS\NATAN\ONEDRIVE\DOCUMENTS\SFML-2.4.2-WINDOWS-VC14-32-BIT\SFML-2.4.2\INCLUDE\SFML\SYSTEM\VECTOR2.HPP
C:\USERS\NATAN\ONEDRIVE\DOCUMENTS\SFML-2.4.2-WINDOWS-VC14-32-BIT\SFML-2.4.2\INCLUDE\SFML\SYSTEM\VECTOR2.INL
C:\USERS\NATAN\ONEDRIVE\DOCUMENTS\SFML-2.4.2-WINDOWS-VC14-32-BIT\SFML-2.4.2\INCLUDE\SFML\SYSTEM\VECTOR3.HPP
C:\USERS\NATAN\ONEDRIVE\DOCUMENTS\SFML-2.4.2-WINDOWS-VC14-32-BIT\SFML-2.4.2\INCLUDE\SFML\SYSTEM\VECTOR3.INL
C:\USERS\NATAN\ONEDRIVE\DOCUMENTS\SFML-2.4.2-WINDOWS-VC14-32-BIT\SFML-2.4.2\INCLUDE\SFML\WINDOW\CONTEXT.HPP
C:\USERS\NATAN\ONEDRIVE\DOCUMENTS\SFML-2.4.2-WINDOWS-VC14-32-BIT\SFML-2.4.2\INCLUDE\SFML\WINDOW\EXPORT.HPP
C:\USERS\NATAN\ONEDRIVE\DOCUMENTS\SFML-2.4.2-WINDOWS-VC14-32-BIT\SFML-2.4.2\INCLUDE\SFML\WINDOW\GLRESOURCE.HPP
C:\USERS\NATAN\ONEDRIVE\DOCUMENTS\SFML-2.4.2-WINDOWS-VC14-32-BIT\SFML-2.4.2\INCLUDE\SFML\WINDOW\CONTEXTSETTINGS.HPP
C:\USERS\NATAN\ONEDRIVE\DOCUMENTS\SFML-2.4.2-WINDOWS-VC14-32-BIT\SFML-2.4.2\INCLUDE\SFML\WINDOW\EVENT.HPP
C:\USERS\NATAN\ONEDRIVE\DOCUMENTS\SFML-2.4.2-WINDOWS-VC14-32-BIT\SFML-2.4.2\INCLUDE\SFML\WINDOW\JOYSTICK.HPP
C:\USERS\NATAN\ONEDRIVE\DOCUMENTS\SFML-2.4.2-WINDOWS-VC14-32-BIT\SFML-2.4.2\INCLUDE\SFML\WINDOW\KEYBOARD.HPP
C:\USERS\NATAN\ONEDRIVE\DOCUMENTS\SFML-2.4.2-WINDOWS-VC14-32-BIT\SFML-2.4.2\INCLUDE\SFML\WINDOW\MOUSE.HPP
C:\USERS\NATAN\ONEDRIVE\DOCUMENTS\SFML-2.4.2-WINDOWS-VC14-32-BIT\SFML-2.4.2\INCLUDE\SFML\WINDOW\SENSOR.HPP
C:\USERS\NATAN\ONEDRIVE\DOCUMENTS\SFML-2.4.2-WINDOWS-VC14-32-BIT\SFML-2.4.2\INCLUDE\SFML\WINDOW\TOUCH.HPP
C:\USERS\NATAN\ONEDRIVE\DOCUMENTS\SFML-2.4.2-WINDOWS-VC14-32-BIT\SFML-2.4.2\INCLUDE\SFML\WINDOW\VIDEOMODE.HPP
C:\PROGRAM FILES (X86)\MICROSOFT VISUAL STUDIO 14.0\VC\INCLUDE\VECTOR
C:\USERS\NATAN\ONEDRIVE\DOCUMENTS\SFML-2.4.2-WINDOWS-VC14-32-BIT\SFML-2.4.2\INCLUDE\SFML\WINDOW\WINDOW.HPP
C:\USERS\NATAN\ONEDRIVE\DOCUMENTS\SFML-2.4.2-WINDOWS-VC14-32-BIT\SFML-2.4.2\INCLUDE\SFML\WINDOW\WINDOWHANDLE.HPP
C:\USERS\NATAN\ONEDRIVE\DOCUMENTS\SFML-2.4.2-WINDOWS-VC14-32-BIT\SFML-2.4.2\INCLUDE\SFML\WINDOW\WINDOWSTYLE.HPP
C:\USERS\NATAN\ONEDRIVE\DOCUMENTS\SFML-2.4.2-WINDOWS-VC14-32-BIT\SFML-2.4.2\INCLUDE\SFML\GRAPHICS\BLENDMODE.HPP
C:\USERS\NATAN\ONEDRIVE\DOCUMENTS\SFML-2.4.2-WINDOWS-VC14-32-BIT\SFML-2.4.2\INCLUDE\SFML\GRAPHICS\EXPORT.HPP
C:\USERS\NATAN\ONEDRIVE\DOCUMENTS\SFML-2.4.2-WINDOWS-VC14-32-BIT\SFML-2.4.2\INCLUDE\SFML\GRAPHICS\CIRCLESHAPE.HPP
C:\USERS\NATAN\ONEDRIVE\DOCUMENTS\SFML-2.4.2-WINDOWS-VC14-32-BIT\SFML-2.4.2\INCLUDE\SFML\GRAPHICS\SHAPE.HPP
C:\USERS\NATAN\ONEDRIVE\DOCUMENTS\SFML-2.4.2-WINDOWS-VC14-32-BIT\SFML-2.4.2\INCLUDE\SFML\GRAPHICS\DRAWABLE.HPP
C:\USERS\NATAN\ONEDRIVE\DOCUMENTS\SFML-2.4.2-WINDOWS-VC14-32-BIT\SFML-2.4.2\INCLUDE\SFML\GRAPHICS\RENDERSTATES.HPP
C:\USERS\NATAN\ONEDRIVE\DOCUMENTS\SFML-2.4.2-WINDOWS-VC14-32-BIT\SFML-2.4.2\INCLUDE\SFML\GRAPHICS\TRANSFORM.HPP
C:\USERS\NATAN\ONEDRIVE\DOCUMENTS\SFML-2.4.2-WINDOWS-VC14-32-BIT\SFML-2.4.2\INCLUDE\SFML\GRAPHICS\RECT.HPP
C:\USERS\NATAN\ONEDRIVE\DOCUMENTS\SFML-2.4.2-WINDOWS-VC14-32-BIT\SFML-2.4.2\INCLUDE\SFML\GRAPHICS\RECT.INL
C:\USERS\NATAN\ONEDRIVE\DOCUMENTS\SFML-2.4.2-WINDOWS-VC14-32-BIT\SFML-2.4.2\INCLUDE\SFML\GRAPHICS\TRANSFORMABLE.HPP
C:\USERS\NATAN\ONEDRIVE\DOCUMENTS\SFML-2.4.2-WINDOWS-VC14-32-BIT\SFML-2.4.2\INCLUDE\SFML\GRAPHICS\VERTEXARRAY.HPP
C:\USERS\NATAN\ONEDRIVE\DOCUMENTS\SFML-2.4.2-WINDOWS-VC14-32-BIT\SFML-2.4.2\INCLUDE\SFML\GRAPHICS\VERTEX.HPP
C:\USERS\NATAN\ONEDRIVE\DOCUMENTS\SFML-2.4.2-WINDOWS-VC14-32-BIT\SFML-2.4.2\INCLUDE\SFML\GRAPHICS\COLOR.HPP
C:\USERS\NATAN\ONEDRIVE\DOCUMENTS\SFML-2.4.2-WINDOWS-VC14-32-BIT\SFML-2.4.2\INCLUDE\SFML\GRAPHICS\PRIMITIVETYPE.HPP
C:\USERS\NATAN\ONEDRIVE\DOCUMENTS\SFML-2.4.2-WINDOWS-VC14-32-BIT\SFML-2.4.2\INCLUDE\SFML\GRAPHICS\CONVEXSHAPE.HPP
C:\USERS\NATAN\ONEDRIVE\DOCUMENTS\SFML-2.4.2-WINDOWS-VC14-32-BIT\SFML-2.4.2\INCLUDE\SFML\GRAPHICS\FONT.HPP
C:\USERS\NATAN\ONEDRIVE\DOCUMENTS\SFML-2.4.2-WINDOWS-VC14-32-BIT\SFML-2.4.2\INCLUDE\SFML\GRAPHICS\GLYPH.HPP
C:\USERS\NATAN\ONEDRIVE\DOCUMENTS\SFML-2.4.2-WINDOWS-VC14-32-BIT\SFML-2.4.2\INCLUDE\SFML\GRAPHICS\TEXTURE.HPP
C:\USERS\NATAN\ONEDRIVE\DOCUMENTS\SFML-2.4.2-WINDOWS-VC14-32-BIT\SFML-2.4.2\INCLUDE\SFML\GRAPHICS\IMAGE.HPP
C:\PROGRAM FILES (X86)\MICROSOFT VISUAL STUDIO 14.0\VC\INCLUDE\MAP
C:\PROGRAM FILES (X86)\MICROSOFT VISUAL STUDIO 14.0\VC\INCLUDE\TUPLE
C:\PROGRAM FILES (X86)\MICROSOFT VISUAL STUDIO 14.0\VC\INCLUDE\XTREE
C:\USERS\NATAN\ONEDRIVE\DOCUMENTS\SFML-2.4.2-WINDOWS-VC14-32-BIT\SFML-2.4.2\INCLUDE\SFML\GRAPHICS\RECTANGLESHAPE.HPP
C:\USERS\NATAN\ONEDRIVE\DOCUMENTS\SFML-2.4.2-WINDOWS-VC14-32-BIT\SFML-2.4.2\INCLUDE\SFML\GRAPHICS\RENDERTARGET.HPP
C:\USERS\NATAN\ONEDRIVE\DOCUMENTS\SFML-2.4.2-WINDOWS-VC14-32-BIT\SFML-2.4.2\INCLUDE\SFML\GRAPHICS\VIEW.HPP
C:\USERS\NATAN\ONEDRIVE\DOCUMENTS\SFML-2.4.2-WINDOWS-VC14-32-BIT\SFML-2.4.2\INCLUDE\SFML\GRAPHICS\RENDERTEXTURE.HPP
C:\USERS\NATAN\ONEDRIVE\DOCUMENTS\SFML-2.4.2-WINDOWS-VC14-32-BIT\SFML-2.4.2\INCLUDE\SFML\GRAPHICS\RENDERWINDOW.HPP
C:\USERS\NATAN\ONEDRIVE\DOCUMENTS\SFML-2.4.2-WINDOWS-VC14-32-BIT\SFML-2.4.2\INCLUDE\SFML\GRAPHICS\SHADER.HPP
C:\USERS\NATAN\ONEDRIVE\DOCUMENTS\SFML-2.4.2-WINDOWS-VC14-32-BIT\SFML-2.4.2\INCLUDE\SFML\GRAPHICS\GLSL.HPP
C:\USERS\NATAN\ONEDRIVE\DOCUMENTS\SFML-2.4.2-WINDOWS-VC14-32-BIT\SFML-2.4.2\INCLUDE\SFML\GRAPHICS\GLSL.INL
C:\USERS\NATAN\ONEDRIVE\DOCUMENTS\SFML-2.4.2-WINDOWS-VC14-32-BIT\SFML-2.4.2\INCLUDE\SFML\GRAPHICS\SPRITE.HPP
C:\USERS\NATAN\ONEDRIVE\DOCUMENTS\SFML-2.4.2-WINDOWS-VC14-32-BIT\SFML-2.4.2\INCLUDE\SFML\GRAPHICS\TEXT.HPP
C:\PROGRAM FILES (X86)\MICROSOFT VISUAL STUDIO 14.0\VC\INCLUDE\IOSTREAM
C:\PROGRAM FILES (X86)\MICROSOFT VISUAL STUDIO 14.0\VC\INCLUDE\SSTREAM
C:\PROGRAM FILES (X86)\MICROSOFT VISUAL STUDIO 14.0\VC\INCLUDE\FSTREAM
C:\PROGRAM FILES (X86)\MICROSOFT VISUAL STUDIO 14.0\VC\INCLUDE\CHRONO
C:\PROGRAM FILES (X86)\MICROSOFT VISUAL STUDIO 14.0\VC\INCLUDE\RATIO
C:\PROGRAM FILES (X86)\MICROSOFT VISUAL STUDIO 14.0\VC\INCLUDE\THR\XTIMEC.H
C:\PROGRAM FILES (X86)\MICROSOFT VISUAL STUDIO 14.0\VC\INCLUDE\THR\XTHRCOMMON.H
^C:\USERS\NATAN\DESKTOP\SKUUL\1. YEAR\REA1121 MATTE FOR PROGRAMMERING\HAND IN 2\HAND IN 2 - CODE\MATH2\SOURCE.CPP
C:\WINDOWS\GLOBALIZATION\SORTING\SORTDEFAULT.NLS
C:\PROGRAM FILES (X86)\MICROSOFT VISUAL STUDIO 14.0\VC\BIN\1033\CLUI.DLL
C:\PROGRAM FILES (X86)\MICROSOFT VISUAL STUDIO 14.0\VC\BIN\MSPDBSRV.EXE
C:\WINDOWS\SYSTEM32\TZRES.DLL
C:\USERS\NATAN\ONEDRIVE\DOCUMENTS\SFML-2.4.2-WINDOWS-VC14-32-BIT\SFML-2.4.2\INCLUDE\SFML\GRAPHICS.HPP
C:\USERS\NATAN\ONEDRIVE\DOCUMENTS\SFML-2.4.2-WINDOWS-VC14-32-BIT\SFML-2.4.2\INCLUDE\SFML\WINDOW.HPP
C:\USERS\NATAN\ONEDRIVE\DOCUMENTS\SFML-2.4.2-WINDOWS-VC14-32-BIT\SFML-2.4.2\INCLUDE\SFML\SYSTEM.HPP
C:\USERS\NATAN\ONEDRIVE\DOCUMENTS\SFML-2.4.2-WINDOWS-VC14-32-BIT\SFML-2.4.2\INCLUDE\SFML\CONFIG.HPP
C:\USERS\NATAN\ONEDRIVE\DOCUMENTS\SFML-2.4.2-WINDOWS-VC14-32-BIT\SFML-2.4.2\INCLUDE\SFML\SYSTEM\CLOCK.HPP
C:\USERS\NATAN\ONEDRIVE\DOCUMENTS\SFML-2.4.2-WINDOWS-VC14-32-BIT\SFML-2.4.2\INCLUDE\SFML\SYSTEM\EXPORT.HPP
C:\USERS\NATAN\ONEDRIVE\DOCUMENTS\SFML-2.4.2-WINDOWS-VC14-32-BIT\SFML-2.4.2\INCLUDE\SFML\SYSTEM\TIME.HPP
C:\USERS\NATAN\ONEDRIVE\DOCUMENTS\SFML-2.4.2-WINDOWS-VC14-32-BIT\SFML-2.4.2\INCLUDE\SFML\SYSTEM\ERR.HPP
C:\PROGRAM FILES (X86)\MICROSOFT VISUAL STUDIO 14.0\VC\INCLUDE\OSTREAM
C:\PROGRAM FILES (X86)\MICROSOFT VISUAL STUDIO 14.0\VC\INCLUDE\IOS
C:\PROGRAM FILES (X86)\MICROSOFT VISUAL STUDIO 14.0\VC\INCLUDE\XLOCNUM
C:\PROGRAM FILES (X86)\MICROSOFT VISUAL STUDIO 14.0\VC\INCLUDE\CLIMITS
C:\PROGRAM FILES (X86)\MICROSOFT VISUAL STUDIO 14.0\VC\INCLUDE\YVALS.H
C:\PROGRAM FILES (X86)\MICROSOFT VISUAL STUDIO 14.0\VC\INCLUDE\XKEYCHECK.H
C:\PROGRAM FILES (X86)\MICROSOFT VISUAL STUDIO 14.0\VC\INCLUDE\CRTDEFS.H
C:\PROGRAM FILES (X86)\MICROSOFT VISUAL STUDIO 14.0\VC\INCLUDE\VCRUNTIME.H
C:\PROGRAM FILES (X86)\MICROSOFT VISUAL STUDIO 14.0\VC\INCLUDE\SAL.H
C:\PROGRAM FILES (X86)\MICROSOFT VISUAL STUDIO 14.0\VC\INCLUDE\CONCURRENCYSAL.H
C:\PROGRAM FILES (X86)\MICROSOFT VISUAL STUDIO 14.0\VC\INCLUDE\VADEFS.H
C:\PROGRAM FILES (X86)\WINDOWS KITS\10\INCLUDE\10.0.10240.0\UCRT\CORECRT.H
C:\PROGRAM FILES (X86)\MICROSOFT VISUAL STUDIO 14.0\VC\INCLUDE\USE_ANSI.H
C:\PROGRAM FILES (X86)\MICROSOFT VISUAL STUDIO 14.0\VC\INCLUDE\LIMITS.H
C:\PROGRAM FILES (X86)\MICROSOFT VISUAL STUDIO 14.0\VC\INCLUDE\CMATH
C:\PROGRAM FILES (X86)\WINDOWS KITS\10\INCLUDE\10.0.10240.0\UCRT\MATH.H
C:\PROGRAM FILES (X86)\MICROSOFT VISUAL STUDIO 14.0\VC\INCLUDE\XTGMATH.H
C:\PROGRAM FILES (X86)\MICROSOFT VISUAL STUDIO 14.0\VC\INCLUDE\XTR1COMMON
C:\PROGRAM FILES (X86)\MICROSOFT VISUAL STUDIO 14.0\VC\INCLUDE\CSTDLIB
C:\PROGRAM FILES (X86)\WINDOWS KITS\10\INCLUDE\10.0.10240.0\UCRT\STDLIB.H
C:\PROGRAM FILES (X86)\WINDOWS KITS\10\INCLUDE\10.0.10240.0\UCRT\CORECRT_MALLOC.H
C:\PROGRAM FILES (X86)\WINDOWS KITS\10\INCLUDE\10.0.10240.0\UCRT\CORECRT_SEARCH.H
C:\PROGRAM FILES (X86)\WINDOWS KITS\10\INCLUDE\10.0.10240.0\UCRT\STDDEF.H
C:\PROGRAM FILES (X86)\WINDOWS KITS\10\INCLUDE\10.0.10240.0\UCRT\CORECRT_WSTDLIB.H
C:\PROGRAM FILES (X86)\MICROSOFT VISUAL STUDIO 14.0\VC\INCLUDE\CSTDIO
C:\PROGRAM FILES (X86)\WINDOWS KITS\10\INCLUDE\10.0.10240.0\UCRT\STDIO.H
C:\PROGRAM FILES (X86)\WINDOWS KITS\10\INCLUDE\10.0.10240.0\UCRT\CORECRT_WSTDIO.H
C:\PROGRAM FILES (X86)\WINDOWS KITS\10\INCLUDE\10.0.10240.0\UCRT\CORECRT_STDIO_CONFIG.H
C:\PROGRAM FILES (X86)\MICROSOFT VISUAL STUDIO 14.0\VC\INCLUDE\STREAMBUF
C:\PROGRAM FILES (X86)\MICROSOFT VISUAL STUDIO 14.0\VC\INCLUDE\XIOSBASE
C:\PROGRAM FILES (X86)\MICROSOFT VISUAL STUDIO 14.0\VC\INCLUDE\XLOCALE
C:\PROGRAM FILES (X86)\MICROSOFT VISUAL STUDIO 14.0\VC\INCLUDE\CSTRING
C:\PROGRAM FILES (X86)\WINDOWS KITS\10\INCLUDE\10.0.10240.0\UCRT\STRING.H
C:\PROGRAM FILES (X86)\WINDOWS KITS\10\INCLUDE\10.0.10240.0\UCRT\CORECRT_MEMORY.H
C:\PROGRAM FILES (X86)\WINDOWS KITS\10\INCLUDE\10.0.10240.0\UCRT\CORECRT_MEMCPY_S.H
C:\PROGRAM FILES (X86)\WINDOWS KITS\10\INCLUDE\10.0.10240.0\UCRT\ERRNO.H
C:\PROGRAM FILES (X86)\MICROSOFT VISUAL STUDIO 14.0\VC\INCLUDE\VCRUNTIME_STRING.H
C:\PROGRAM FILES (X86)\WINDOWS KITS\10\INCLUDE\10.0.10240.0\UCRT\CORECRT_WSTRING.H
C:\PROGRAM FILES (X86)\MICROSOFT VISUAL STUDIO 14.0\VC\INCLUDE\STDEXCEPT
C:\PROGRAM FILES (X86)\MICROSOFT VISUAL STUDIO 14.0\VC\INCLUDE\EXCEPTION
C:\PROGRAM FILES (X86)\MICROSOFT VISUAL STUDIO 14.0\VC\INCLUDE\TYPE_TRAITS
C:\PROGRAM FILES (X86)\MICROSOFT VISUAL STUDIO 14.0\VC\INCLUDE\XSTDDEF
C:\PROGRAM FILES (X86)\MICROSOFT VISUAL STUDIO 14.0\VC\INCLUDE\CSTDDEF
C:\PROGRAM FILES (X86)\MICROSOFT VISUAL STUDIO 14.0\VC\INCLUDE\INITIALIZER_LIST
C:\PROGRAM FILES (X86)\WINDOWS KITS\10\INCLUDE\10.0.10240.0\UCRT\MALLOC.H
C:\PROGRAM FILES (X86)\MICROSOFT VISUAL STUDIO 14.0\VC\INCLUDE\VCRUNTIME_EXCEPTION.H
C:\PROGRAM FILES (X86)\MICROSOFT VISUAL STUDIO 14.0\VC\INCLUDE\EH.H
C:\PROGRAM FILES (X86)\WINDOWS KITS\10\INCLUDE\10.0.10240.0\UCRT\CORECRT_TERMINATE.H
C:\PROGRAM FILES (X86)\MICROSOFT VISUAL STUDIO 14.0\VC\INCLUDE\XSTRING
C:\PROGRAM FILES (X86)\MICROSOFT VISUAL STUDIO 14.0\VC\INCLUDE\XMEMORY0
C:\PROGRAM FILES (X86)\MICROSOFT VISUAL STUDIO 14.0\VC\INCLUDE\CSTDINT
C:\PROGRAM FILES (X86)\MICROSOFT VISUAL STUDIO 14.0\VC\INCLUDE\STDINT.H
C:\PROGRAM FILES (X86)\MICROSOFT VISUAL STUDIO 14.0\VC\INCLUDE\LIMITS
C:\PROGRAM FILES (X86)\MICROSOFT VISUAL STUDIO 14.0\VC\INCLUDE\YMATH.H
C:\PROGRAM FILES (X86)\MICROSOFT VISUAL STUDIO 14.0\VC\INCLUDE\CFLOAT
C:\PROGRAM FILES (X86)\WINDOWS KITS\10\INCLUDE\10.0.10240.0\UCRT\FLOAT.H
C:\PROGRAM FILES (X86)\MICROSOFT VISUAL STUDIO 14.0\VC\INCLUDE\CWCHAR
C:\PROGRAM FILES (X86)\WINDOWS KITS\10\INCLUDE\10.0.10240.0\UCRT\WCHAR.H
C:\PROGRAM FILES (X86)\WINDOWS KITS\10\INCLUDE\10.0.10240.0\UCRT\CORECRT_WCONIO.H
C:\PROGRAM FILES (X86)\WINDOWS KITS\10\INCLUDE\10.0.10240.0\UCRT\CORECRT_WCTYPE.H
C:\PROGRAM FILES (X86)\WINDOWS KITS\10\INCLUDE\10.0.10240.0\UCRT\CORECRT_WDIRECT.H
C:\PROGRAM FILES (X86)\WINDOWS KITS\10\INCLUDE\10.0.10240.0\UCRT\CORECRT_WIO.H
C:\PROGRAM FILES (X86)\WINDOWS KITS\10\INCLUDE\10.0.10240.0\UCRT\CORECRT_SHARE.H
C:\PROGRAM FILES (X86)\WINDOWS KITS\10\INCLUDE\10.0.10240.0\UCRT\CORECRT_WPROCESS.H
C:\PROGRAM FILES (X86)\WINDOWS KITS\10\INCLUDE\10.0.10240.0\UCRT\CORECRT_WTIME.H
C:\PROGRAM FILES (X86)\WINDOWS KITS\10\INCLUDE\10.0.10240.0\UCRT\SYS\STAT.H
C:\PROGRAM FILES (X86)\WINDOWS KITS\10\INCLUDE\10.0.10240.0\UCRT\SYS\TYPES.H
C:\PROGRAM FILES (X86)\MICROSOFT VISUAL STUDIO 14.0\VC\INCLUDE\NEW
C:\PROGRAM FILES (X86)\MICROSOFT VISUAL STUDIO 14.0\VC\INCLUDE\VCRUNTIME_NEW.H
C:\PROGRAM FILES (X86)\MICROSOFT VISUAL STUDIO 14.0\VC\INCLUDE\XUTILITY
C:\PROGRAM FILES (X86)\MICROSOFT VISUAL STUDIO 14.0\VC\INCLUDE\UTILITY
C:\PROGRAM FILES (X86)\MICROSOFT VISUAL STUDIO 14.0\VC\INCLUDE\IOSFWD
C:\PROGRAM FILES (X86)\WINDOWS KITS\10\INCLUDE\10.0.10240.0\UCRT\CRTDBG.H
C:\PROGRAM FILES (X86)\MICROSOFT VISUAL STUDIO 14.0\VC\INCLUDE\VCRUNTIME_NEW_DEBUG.H
C:\PROGRAM FILES (X86)\MICROSOFT VISUAL STUDIO 14.0\VC\INCLUDE\XATOMIC0.H
C:\PROGRAM FILES (X86)\MICROSOFT VISUAL STUDIO 14.0\VC\INCLUDE\INTRIN.H
C:\PROGRAM FILES (X86)\MICROSOFT VISUAL STUDIO 14.0\VC\INCLUDE\SETJMP.H
C:\PROGRAM FILES (X86)\MICROSOFT VISUAL STUDIO 14.0\VC\INCLUDE\IMMINTRIN.H
C:\PROGRAM FILES (X86)\MICROSOFT VISUAL STUDIO 14.0\VC\INCLUDE\WMMINTRIN.H
C:\PROGRAM FILES (X86)\MICROSOFT VISUAL STUDIO 14.0\VC\INCLUDE\NMMINTRIN.H
C:\PROGRAM FILES (X86)\MICROSOFT VISUAL STUDIO 14.0\VC\INCLUDE\SMMINTRIN.H
C:\PROGRAM FILES (X86)\MICROSOFT VISUAL STUDIO 14.0\VC\INCLUDE\TMMINTRIN.H
C:\PROGRAM FILES (X86)\MICROSOFT VISUAL STUDIO 14.0\VC\INCLUDE\PMMINTRIN.H
C:\PROGRAM FILES (X86)\MICROSOFT VISUAL STUDIO 14.0\VC\INCLUDE\EMMINTRIN.H
C:\PROGRAM FILES (X86)\MICROSOFT VISUAL STUDIO 14.0\VC\INCLUDE\XMMINTRIN.H
C:\PROGRAM FILES (X86)\MICROSOFT VISUAL STUDIO 14.0\VC\INCLUDE\MMINTRIN.H
C:\PROGRAM FILES (X86)\MICROSOFT VISUAL STUDIO 14.0\VC\INCLUDE\AMMINTRIN.H
C:\PROGRAM FILES (X86)\MICROSOFT VISUAL STUDIO 14.0\VC\INCLUDE\MM3DNOW.H
C:\PROGRAM FILES (X86)\MICROSOFT VISUAL STUDIO 14.0\VC\INCLUDE\TYPEINFO
C:\PROGRAM FILES (X86)\MICROSOFT VISUAL STUDIO 14.0\VC\INCLUDE\VCRUNTIME_TYPEINFO.H
C:\PROGRAM FILES (X86)\MICROSOFT VISUAL STUDIO 14.0\VC\INCLUDE\XLOCINFO
C:\PROGRAM FILES (X86)\MICROSOFT VISUAL STUDIO 14.0\VC\INCLUDE\XLOCINFO.H
C:\PROGRAM FILES (X86)\WINDOWS KITS\10\INCLUDE\10.0.10240.0\UCRT\CTYPE.H
C:\PROGRAM FILES (X86)\WINDOWS KITS\10\INCLUDE\10.0.10240.0\UCRT\LOCALE.H
C:\PROGRAM FILES (X86)\MICROSOFT VISUAL STUDIO 14.0\VC\INCLUDE\XFACET
C:\PROGRAM FILES (X86)\MICROSOFT VISUAL STUDIO 14.0\VC\INCLUDE\SYSTEM_ERROR
C:\PROGRAM FILES (X86)\MICROSOFT VISUAL STUDIO 14.0\VC\INCLUDE\CERRNO
C:\PROGRAM FILES (X86)\WINDOWS KITS\10\INCLUDE\10.0.10240.0\UCRT\SHARE.H
C:\USERS\NATAN\ONEDRIVE\DOCUMENTS\SFML-2.4.2-WINDOWS-VC14-32-BIT\SFML-2.4.2\INCLUDE\SFML\SYSTEM\FILEINPUTSTREAM.HPP
C:\USERS\NATAN\ONEDRIVE\DOCUMENTS\SFML-2.4.2-WINDOWS-VC14-32-BIT\SFML-2.4.2\INCLUDE\SFML\SYSTEM\INPUTSTREAM.HPP
C:\USERS\NATAN\ONEDRIVE\DOCUMENTS\SFML-2.4.2-WINDOWS-VC14-32-BIT\SFML-2.4.2\INCLUDE\SFML\SYSTEM\NONCOPYABLE.HPP
C:\PROGRAM FILES (X86)\MICROSOFT VISUAL STUDIO 14.0\VC\INCLUDE\STRING
C:\PROGRAM FILES (X86)\MICROSOFT VISUAL STUDIO 14.0\VC\INCLUDE\ISTREAM
C:\USERS\NATAN\ONEDRIVE\DOCUMENTS\SFML-2.4.2-WINDOWS-VC14-32-BIT\SFML-2.4.2\INCLUDE\SFML\SYSTEM\LOCK.HPP
C:\USERS\NATAN\ONEDRIVE\DOCUMENTS\SFML-2.4.2-WINDOWS-VC14-32-BIT\SFML-2.4.2\INCLUDE\SFML\SYSTEM\MEMORYINPUTSTREAM.HPP
C:\USERS\NATAN\ONEDRIVE\DOCUMENTS\SFML-2.4.2-WINDOWS-VC14-32-BIT\SFML-2.4.2\INCLUDE\SFML\SYSTEM\MUTEX.HPP
C:\USERS\NATAN\ONEDRIVE\DOCUMENTS\SFML-2.4.2-WINDOWS-VC14-32-BIT\SFML-2.4.2\INCLUDE\SFML\SYSTEM\SLEEP.HPP
C:\USERS\NATAN\ONEDRIVE\DOCUMENTS\SFML-2.4.2-WINDOWS-VC14-32-BIT\SFML-2.4.2\INCLUDE\SFML\SYSTEM\STRING.HPP
C:\USERS\NATAN\ONEDRIVE\DOCUMENTS\SFML-2.4.2-WINDOWS-VC14-32-BIT\SFML-2.4.2\INCLUDE\SFML\SYSTEM\UTF.HPP
C:\PROGRAM FILES (X86)\MICROSOFT VISUAL STUDIO 14.0\VC\INCLUDE\ALGORITHM
C:\PROGRAM FILES (X86)\MICROSOFT VISUAL STUDIO 14.0\VC\INCLUDE\XMEMORY
C:\PROGRAM FILES (X86)\MICROSOFT VISUAL STUDIO 14.0\VC\INCLUDE\LOCALE
C:\PROGRAM FILES (X86)\MICROSOFT VISUAL STUDIO 14.0\VC\INCLUDE\XLOCBUF
C:\PROGRAM FILES (X86)\MICROSOFT VISUAL STUDIO 14.0\VC\INCLUDE\XLOCMES
C:\PROGRAM FILES (X86)\MICROSOFT VISUAL STUDIO 14.0\VC\INCLUDE\XLOCMON
C:\PROGRAM FILES (X86)\MICROSOFT VISUAL STUDIO 14.0\VC\INCLUDE\XLOCTIME
C:\PROGRAM FILES (X86)\MICROSOFT VISUAL STUDIO 14.0\VC\INCLUDE\CTIME
C:\PROGRAM FILES (X86)\WINDOWS KITS\10\INCLUDE\10.0.10240.0\UCRT\TIME.H
C:\USERS\NATAN\ONEDRIVE\DOCUMENTS\SFML-2.4.2-WINDOWS-VC14-32-BIT\SFML-2.4.2\INCLUDE\SFML\SYSTEM\UTF.INL
C:\PROGRAM FILES (X86)\MICROSOFT VISUAL STUDIO 14.0\VC\INCLUDE\ITERATOR
C:\USERS\NATAN\ONEDRIVE\DOCUMENTS\SFML-2.4.2-WINDOWS-VC14-32-BIT\SFML-2.4.2\INCLUDE\SFML\SYSTEM\STRING.INL
C:\USERS\NATAN\ONEDRIVE\DOCUMENTS\SFML-2.4.2-WINDOWS-VC14-32-BIT\SFML-2.4.2\INCLUDE\SFML\SYSTEM\THREAD.HPP
C:\USERS\NATAN\ONEDRIVE\DOCUMENTS\SFML-2.4.2-WINDOWS-VC14-32-BIT\SFML-2.4.2\INCLUDE\SFML\SYSTEM\THREAD.INL
C:\USERS\NATAN\ONEDRIVE\DOCUMENTS\SFML-2.4.2-WINDOWS-VC14-32-BIT\SFML-2.4.2\INCLUDE\SFML\SYSTEM\THREADLOCAL.HPP
C:\USERS\NATAN\ONEDRIVE\DOCUMENTS\SFML-2.4.2-WINDOWS-VC14-32-BIT\SFML-2.4.2\INCLUDE\SFML\SYSTEM\THREADLOCALPTR.HPP
C:\USERS\NATAN\ONEDRIVE\DOCUMENTS\SFML-2.4.2-WINDOWS-VC14-32-BIT\SFML-2.4.2\INCLUDE\SFML\SYSTEM\THREADLOCALPTR.INL
C:\USERS\NATAN\ONEDRIVE\DOCUMENTS\SFML-2.4.2-WINDOWS-VC14-32-BIT\SFML-2.4.2\INCLUDE\SFML\SYSTEM\VECTOR2.HPP
C:\USERS\NATAN\ONEDRIVE\DOCUMENTS\SFML-2.4.2-WINDOWS-VC14-32-BIT\SFML-2.4.2\INCLUDE\SFML\SYSTEM\VECTOR2.INL
C:\USERS\NATAN\ONEDRIVE\DOCUMENTS\SFML-2.4.2-WINDOWS-VC14-32-BIT\SFML-2.4.2\INCLUDE\SFML\SYSTEM\VECTOR3.HPP
C:\USERS\NATAN\ONEDRIVE\DOCUMENTS\SFML-2.4.2-WINDOWS-VC14-32-BIT\SFML-2.4.2\INCLUDE\SFML\SYSTEM\VECTOR3.INL
C:\USERS\NATAN\ONEDRIVE\DOCUMENTS\SFML-2.4.2-WINDOWS-VC14-32-BIT\SFML-2.4.2\INCLUDE\SFML\WINDOW\CONTEXT.HPP
C:\USERS\NATAN\ONEDRIVE\DOCUMENTS\SFML-2.4.2-WINDOWS-VC14-32-BIT\SFML-2.4.2\INCLUDE\SFML\WINDOW\EXPORT.HPP
C:\USERS\NATAN\ONEDRIVE\DOCUMENTS\SFML-2.4.2-WINDOWS-VC14-32-BIT\SFML-2.4.2\INCLUDE\SFML\WINDOW\GLRESOURCE.HPP
C:\USERS\NATAN\ONEDRIVE\DOCUMENTS\SFML-2.4.2-WINDOWS-VC14-32-BIT\SFML-2.4.2\INCLUDE\SFML\WINDOW\CONTEXTSETTINGS.HPP
C:\USERS\NATAN\ONEDRIVE\DOCUMENTS\SFML-2.4.2-WINDOWS-VC14-32-BIT\SFML-2.4.2\INCLUDE\SFML\WINDOW\EVENT.HPP
C:\USERS\NATAN\ONEDRIVE\DOCUMENTS\SFML-2.4.2-WINDOWS-VC14-32-BIT\SFML-2.4.2\INCLUDE\SFML\WINDOW\JOYSTICK.HPP
C:\USERS\NATAN\ONEDRIVE\DOCUMENTS\SFML-2.4.2-WINDOWS-VC14-32-BIT\SFML-2.4.2\INCLUDE\SFML\WINDOW\KEYBOARD.HPP
C:\USERS\NATAN\ONEDRIVE\DOCUMENTS\SFML-2.4.2-WINDOWS-VC14-32-BIT\SFML-2.4.2\INCLUDE\SFML\WINDOW\MOUSE.HPP
C:\USERS\NATAN\ONEDRIVE\DOCUMENTS\SFML-2.4.2-WINDOWS-VC14-32-BIT\SFML-2.4.2\INCLUDE\SFML\WINDOW\SENSOR.HPP
C:\USERS\NATAN\ONEDRIVE\DOCUMENTS\SFML-2.4.2-WINDOWS-VC14-32-BIT\SFML-2.4.2\INCLUDE\SFML\WINDOW\TOUCH.HPP
C:\USERS\NATAN\ONEDRIVE\DOCUMENTS\SFML-2.4.2-WINDOWS-VC14-32-BIT\SFML-2.4.2\INCLUDE\SFML\WINDOW\VIDEOMODE.HPP
C:\PROGRAM FILES (X86)\MICROSOFT VISUAL STUDIO 14.0\VC\INCLUDE\VECTOR
C:\USERS\NATAN\ONEDRIVE\DOCUMENTS\SFML-2.4.2-WINDOWS-VC14-32-BIT\SFML-2.4.2\INCLUDE\SFML\WINDOW\WINDOW.HPP
C:\USERS\NATAN\ONEDRIVE\DOCUMENTS\SFML-2.4.2-WINDOWS-VC14-32-BIT\SFML-2.4.2\INCLUDE\SFML\WINDOW\WINDOWHANDLE.HPP
C:\USERS\NATAN\ONEDRIVE\DOCUMENTS\SFML-2.4.2-WINDOWS-VC14-32-BIT\SFML-2.4.2\INCLUDE\SFML\WINDOW\WINDOWSTYLE.HPP
C:\USERS\NATAN\ONEDRIVE\DOCUMENTS\SFML-2.4.2-WINDOWS-VC14-32-BIT\SFML-2.4.2\INCLUDE\SFML\GRAPHICS\BLENDMODE.HPP
C:\USERS\NATAN\ONEDRIVE\DOCUMENTS\SFML-2.4.2-WINDOWS-VC14-32-BIT\SFML-2.4.2\INCLUDE\SFML\GRAPHICS\EXPORT.HPP
C:\USERS\NATAN\ONEDRIVE\DOCUMENTS\SFML-2.4.2-WINDOWS-VC14-32-BIT\SFML-2.4.2\INCLUDE\SFML\GRAPHICS\CIRCLESHAPE.HPP
C:\USERS\NATAN\ONEDRIVE\DOCUMENTS\SFML-2.4.2-WINDOWS-VC14-32-BIT\SFML-2.4.2\INCLUDE\SFML\GRAPHICS\SHAPE.HPP
C:\USERS\NATAN\ONEDRIVE\DOCUMENTS\SFML-2.4.2-WINDOWS-VC14-32-BIT\SFML-2.4.2\INCLUDE\SFML\GRAPHICS\DRAWABLE.HPP
C:\USERS\NATAN\ONEDRIVE\DOCUMENTS\SFML-2.4.2-WINDOWS-VC14-32-BIT\SFML-2.4.2\INCLUDE\SFML\GRAPHICS\RENDERSTATES.HPP
C:\USERS\NATAN\ONEDRIVE\DOCUMENTS\SFML-2.4.2-WINDOWS-VC14-32-BIT\SFML-2.4.2\INCLUDE\SFML\GRAPHICS\TRANSFORM.HPP
C:\USERS\NATAN\ONEDRIVE\DOCUMENTS\SFML-2.4.2-WINDOWS-VC14-32-BIT\SFML-2.4.2\INCLUDE\SFML\GRAPHICS\RECT.HPP
C:\USERS\NATAN\ONEDRIVE\DOCUMENTS\SFML-2.4.2-WINDOWS-VC14-32-BIT\SFML-2.4.2\INCLUDE\SFML\GRAPHICS\RECT.INL
C:\USERS\NATAN\ONEDRIVE\DOCUMENTS\SFML-2.4.2-WINDOWS-VC14-32-BIT\SFML-2.4.2\INCLUDE\SFML\GRAPHICS\TRANSFORMABLE.HPP
C:\USERS\NATAN\ONEDRIVE\DOCUMENTS\SFML-2.4.2-WINDOWS-VC14-32-BIT\SFML-2.4.2\INCLUDE\SFML\GRAPHICS\VERTEXARRAY.HPP
C:\USERS\NATAN\ONEDRIVE\DOCUMENTS\SFML-2.4.2-WINDOWS-VC14-32-BIT\SFML-2.4.2\INCLUDE\SFML\GRAPHICS\VERTEX.HPP
C:\USERS\NATAN\ONEDRIVE\DOCUMENTS\SFML-2.4.2-WINDOWS-VC14-32-BIT\SFML-2.4.2\INCLUDE\SFML\GRAPHICS\COLOR.HPP
C:\USERS\NATAN\ONEDRIVE\DOCUMENTS\SFML-2.4.2-WINDOWS-VC14-32-BIT\SFML-2.4.2\INCLUDE\SFML\GRAPHICS\PRIMITIVETYPE.HPP
C:\USERS\NATAN\ONEDRIVE\DOCUMENTS\SFML-2.4.2-WINDOWS-VC14-32-BIT\SFML-2.4.2\INCLUDE\SFML\GRAPHICS\CONVEXSHAPE.HPP
C:\USERS\NATAN\ONEDRIVE\DOCUMENTS\SFML-2.4.2-WINDOWS-VC14-32-BIT\SFML-2.4.2\INCLUDE\SFML\GRAPHICS\FONT.HPP
C:\USERS\NATAN\ONEDRIVE\DOCUMENTS\SFML-2.4.2-WINDOWS-VC14-32-BIT\SFML-2.4.2\INCLUDE\SFML\GRAPHICS\GLYPH.HPP
C:\USERS\NATAN\ONEDRIVE\DOCUMENTS\SFML-2.4.2-WINDOWS-VC14-32-BIT\SFML-2.4.2\INCLUDE\SFML\GRAPHICS\TEXTURE.HPP
C:\USERS\NATAN\ONEDRIVE\DOCUMENTS\SFML-2.4.2-WINDOWS-VC14-32-BIT\SFML-2.4.2\INCLUDE\SFML\GRAPHICS\IMAGE.HPP
C:\PROGRAM FILES (X86)\MICROSOFT VISUAL STUDIO 14.0\VC\INCLUDE\MAP
C:\PROGRAM FILES (X86)\MICROSOFT VISUAL STUDIO 14.0\VC\INCLUDE\TUPLE
C:\PROGRAM FILES (X86)\MICROSOFT VISUAL STUDIO 14.0\VC\INCLUDE\XTREE
C:\USERS\NATAN\ONEDRIVE\DOCUMENTS\SFML-2.4.2-WINDOWS-VC14-32-BIT\SFML-2.4.2\INCLUDE\SFML\GRAPHICS\RECTANGLESHAPE.HPP
C:\USERS\NATAN\ONEDRIVE\DOCUMENTS\SFML-2.4.2-WINDOWS-VC14-32-BIT\SFML-2.4.2\INCLUDE\SFML\GRAPHICS\RENDERTARGET.HPP
C:\USERS\NATAN\ONEDRIVE\DOCUMENTS\SFML-2.4.2-WINDOWS-VC14-32-BIT\SFML-2.4.2\INCLUDE\SFML\GRAPHICS\VIEW.HPP
C:\USERS\NATAN\ONEDRIVE\DOCUMENTS\SFML-2.4.2-WINDOWS-VC14-32-BIT\SFML-2.4.2\INCLUDE\SFML\GRAPHICS\RENDERTEXTURE.HPP
C:\USERS\NATAN\ONEDRIVE\DOCUMENTS\SFML-2.4.2-WINDOWS-VC14-32-BIT\SFML-2.4.2\INCLUDE\SFML\GRAPHICS\RENDERWINDOW.HPP
C:\USERS\NATAN\ONEDRIVE\DOCUMENTS\SFML-2.4.2-WINDOWS-VC14-32-BIT\SFML-2.4.2\INCLUDE\SFML\GRAPHICS\SHADER.HPP
C:\USERS\NATAN\ONEDRIVE\DOCUMENTS\SFML-2.4.2-WINDOWS-VC14-32-BIT\SFML-2.4.2\INCLUDE\SFML\GRAPHICS\GLSL.HPP
C:\USERS\NATAN\ONEDRIVE\DOCUMENTS\SFML-2.4.2-WINDOWS-VC14-32-BIT\SFML-2.4.2\INCLUDE\SFML\GRAPHICS\GLSL.INL
C:\USERS\NATAN\ONEDRIVE\DOCUMENTS\SFML-2.4.2-WINDOWS-VC14-32-BIT\SFML-2.4.2\INCLUDE\SFML\GRAPHICS\SPRITE.HPP
C:\USERS\NATAN\ONEDRIVE\DOCUMENTS\SFML-2.4.2-WINDOWS-VC14-32-BIT\SFML-2.4.2\INCLUDE\SFML\GRAPHICS\TEXT.HPP
C:\PROGRAM FILES (X86)\MICROSOFT VISUAL STUDIO 14.0\VC\INCLUDE\IOSTREAM
C:\PROGRAM FILES (X86)\MICROSOFT VISUAL STUDIO 14.0\VC\INCLUDE\SSTREAM
C:\PROGRAM FILES (X86)\MICROSOFT VISUAL STUDIO 14.0\VC\INCLUDE\FSTREAM
C:\PROGRAM FILES (X86)\MICROSOFT VISUAL STUDIO 14.0\VC\INCLUDE\CHRONO
C:\PROGRAM FILES (X86)\MICROSOFT VISUAL STUDIO 14.0\VC\INCLUDE\RATIO
C:\PROGRAM FILES (X86)\MICROSOFT VISUAL STUDIO 14.0\VC\INCLUDE\THR\XTIMEC.H
C:\PROGRAM FILES (X86)\MICROSOFT VISUAL STUDIO 14.0\VC\INCLUDE\THR\XTHRCOMMON.H
